test_run_dir/Test1/Exercise2.vcd
$date
2021-04-07T09:41+0000
$end
$version
0.2
$end
$comment

$end
$timescale 1ns  $end
$scope module Exercise2 $end
 $var wire 4 ! count $end
 $var wire 1 " _T $end
 $var wire 1 # _GEN_2 $end
 $var wire 17 $ _max_T_2 $end
 $var wire 5 % _count_T $end
 $var wire 4 & _count_T_1 $end
 $var wire 17 ' max $end
 $var wire 4 ( _GEN_1 $end
 $var wire 18 ) _max_T_1 $end
 $var wire 1 * clock $end
 $var wire 1 + io_result $end
 $var wire 4 , _GEN_0 $end
 $var wire 4 - _count_T_2 $end
 $var wire 1 . reset $end
 $var wire 1 / _GEN_3 $end
$upscope $end
$enddefinitions $end
$dumpvars
b0000 (
b00000000000000000 $
b00000 %
0.
b0000 !
0/
0"
0#
b00000000000000000 '
b000000001111111111 )
0*
b0000 ,
0+
b0000 -
b0000 &
$end
#0
b0001 -
b00001 %
1.
b0001 &
b00000001111111111 '
b00000001111111111 $
b0001 (
b0001 ,
#1
1*
#6
0.
0*
#11
b0001 !
b0010 -
b00010 %
b0010 &
1*
b0010 (
b0010 ,
#16
0*
#21
b0010 !
b0011 -
b00011 %
b0011 &
1*
b0011 (
b0011 ,
#26
0*
#31
b0011 !
b0100 -
b00100 %
b0100 &
1*
b0100 (
b0100 ,
#36
0*
#41
b0100 !
b0101 -
b00101 %
b0101 &
1*
b0101 (
b0101 ,
#46
0*
#51
b0101 !
b0110 -
b00110 %
b0110 &
1*
b0110 (
b0110 ,
#56
0*
#61
b0110 !
b0111 -
b00111 %
b0111 &
1*
b0111 (
b0111 ,
#66
0*
#71
b0111 !
b1000 -
b01000 %
b1000 &
1*
b1000 (
b1000 ,
#76
0*
#81
b1000 !
b1001 -
b11001 %
b1001 &
1#
1*
1+
b0000 (
1/
b0000 ,
#86
0*
#91
b0000 !
b0001 -
b00001 %
b0001 &
0#
1*
0+
b0001 (
0/
b0001 ,
#96
0*
#101
b0001 !
b0010 -
b00010 %
b0010 &
1*
b0010 (
b0010 ,
#106
0*
#111
b0010 !
b0011 -
b00011 %
b0011 &
1*
b0011 (
b0011 ,
#116
0*
#121
b0011 !
b0100 -
b00100 %
b0100 &
1*
b0100 (
b0100 ,
#126
0*
#131
b0100 !
b0101 -
b00101 %
b0101 &
1*
b0101 (
b0101 ,
#136
0*
#141
b0101 !
b0110 -
b00110 %
b0110 &
1*
b0110 (
b0110 ,
#146
0*
#151
b0110 !
b0111 -
b00111 %
b0111 &
1*
b0111 (
b0111 ,
#156
0*
#161
b0111 !
b1000 -
b01000 %
b1000 &
1*
b1000 (
b1000 ,
#166
0*
#171
b1000 !
b1001 -
b11001 %
b1001 &
1#
1*
1+
b0000 (
1/
b0000 ,
#176
0*
#181
b0000 !
b0001 -
b00001 %
b0001 &
0#
1*
0+
b0001 (
0/
b0001 ,
#186
0*
#191
b0001 !
b0010 -
b00010 %
b0010 &
1*
b0010 (
b0010 ,
#196
0*
#201
b0010 !
b0011 -
b00011 %
b0011 &
1*
b0011 (
b0011 ,
#206
0*
#211
b0011 !
b0100 -
b00100 %
b0100 &
1*
b0100 (
b0100 ,
#216
0*
#221
b0100 !
b0101 -
b00101 %
b0101 &
1*
b0101 (
b0101 ,
#226
0*
#231
b0101 !
b0110 -
b00110 %
b0110 &
1*
b0110 (
b0110 ,
#236
0*
#241
b0110 !
b0111 -
b00111 %
b0111 &
1*
b0111 (
b0111 ,
#246
0*
#251
b0111 !
b1000 -
b01000 %
b1000 &
1*
b1000 (
b1000 ,
#256
0*
#261
b1000 !
b1001 -
b11001 %
b1001 &
1#
1*
1+
b0000 (
1/
b0000 ,
#266
0*
#271
b0000 !
b0001 -
b00001 %
b0001 &
0#
1*
0+
b0001 (
0/
b0001 ,
#276
0*
#281
b0001 !
b0010 -
b00010 %
b0010 &
1*
b0010 (
b0010 ,
#286
0*
#291
b0010 !
b0011 -
b00011 %
b0011 &
1*
b0011 (
b0011 ,
#296
0*
#301
b0011 !
b0100 -
b00100 %
b0100 &
1*
b0100 (
b0100 ,
#306
0*
#311
b0100 !
b0101 -
b00101 %
b0101 &
1*
b0101 (
b0101 ,
#316
0*
#321
b0101 !
b0110 -
b00110 %
b0110 &
1*
b0110 (
b0110 ,
#326
0*
#331
b0110 !
b0111 -
b00111 %
b0111 &
1*
b0111 (
b0111 ,
#336
0*
#341
b0111 !
b1000 -
b01000 %
b1000 &
1*
b1000 (
b1000 ,
#346
0*
#351
b1000 !
b1001 -
b11001 %
b1001 &
1#
1*
1+
b0000 (
1/
b0000 ,
#356
0*
#361
b0000 !
b0001 -
b00001 %
b0001 &
0#
1*
0+
b0001 (
0/
b0001 ,
#366
0*
#371
b0001 !
b0010 -
b00010 %
b0010 &
1*
b0010 (
b0010 ,
#376
0*
#381
b0010 !
b0011 -
b00011 %
b0011 &
1*
b0011 (
b0011 ,
#386
0*
#391
b0011 !
b0100 -
b00100 %
b0100 &
1*
b0100 (
b0100 ,
#396
0*
#401
b0100 !
b0101 -
b00101 %
b0101 &
1*
b0101 (
b0101 ,
#406
0*
#411
b0101 !
b0110 -
b00110 %
b0110 &
1*
b0110 (
b0110 ,
#416
0*
#421
b0110 !
b0111 -
b00111 %
b0111 &
1*
b0111 (
b0111 ,
#426
0*
#431
b0111 !
b1000 -
b01000 %
b1000 &
1*
b1000 (
b1000 ,
#436
0*
#441
b1000 !
b1001 -
b11001 %
b1001 &
1#
1*
1+
b0000 (
1/
b0000 ,
#446
0*
#451
b0000 !
b0001 -
b00001 %
b0001 &
0#
1*
0+
b0001 (
0/
b0001 ,
#456
0*
#461
b0001 !
b0010 -
b00010 %
b0010 &
1*
b0010 (
b0010 ,
#466
0*
#471
b0010 !
b0011 -
b00011 %
b0011 &
1*
b0011 (
b0011 ,
#476
0*
#481
b0011 !
b0100 -
b00100 %
b0100 &
1*
b0100 (
b0100 ,
#486
0*
#491
b0100 !
b0101 -
b00101 %
b0101 &
1*
b0101 (
b0101 ,
#496
0*
#501
b0101 !
b0110 -
b00110 %
b0110 &
1*
b0110 (
b0110 ,
#506
0*
#511
b0110 !
b0111 -
b00111 %
b0111 &
1*
b0111 (
b0111 ,
#516
0*
#521
b0111 !
b1000 -
b01000 %
b1000 &
1*
b1000 (
b1000 ,
#526
0*
#531
b1000 !
b1001 -
b11001 %
b1001 &
1#
1*
1+
b0000 (
1/
b0000 ,
#536
0*
#541
b0000 !
b0001 -
b00001 %
b0001 &
0#
1*
0+
b0001 (
0/
b0001 ,
#546
0*
#551
b0001 !
b0010 -
b00010 %
b0010 &
1*
b0010 (
b0010 ,
#556
0*
#561
b0010 !
b0011 -
b00011 %
b0011 &
1*
b0011 (
b0011 ,
#566
0*
#571
b0011 !
b0100 -
b00100 %
b0100 &
1*
b0100 (
b0100 ,
#576
0*
#581
b0100 !
b0101 -
b00101 %
b0101 &
1*
b0101 (
b0101 ,
#586
0*
#591
b0101 !
b0110 -
b00110 %
b0110 &
1*
b0110 (
b0110 ,
#596
0*
#601
b0110 !
b0111 -
b00111 %
b0111 &
1*
b0111 (
b0111 ,
#606
0*
#611
b0111 !
b1000 -
b01000 %
b1000 &
1*
b1000 (
b1000 ,
#616
0*
#621
b1000 !
b1001 -
b11001 %
b1001 &
1#
1*
1+
b0000 (
1/
b0000 ,
#626
0*
#631
b0000 !
b0001 -
b00001 %
b0001 &
0#
1*
0+
b0001 (
0/
b0001 ,
#636
0*
#641
b0001 !
b0010 -
b00010 %
b0010 &
1*
b0010 (
b0010 ,
#646
0*
#651
b0010 !
b0011 -
b00011 %
b0011 &
1*
b0011 (
b0011 ,
#656
0*
#661
b0011 !
b0100 -
b00100 %
b0100 &
1*
b0100 (
b0100 ,
#666
0*
#671
b0100 !
b0101 -
b00101 %
b0101 &
1*
b0101 (
b0101 ,
#676
0*
#681
b0101 !
b0110 -
b00110 %
b0110 &
1*
b0110 (
b0110 ,
#686
0*
#691
b0110 !
b0111 -
b00111 %
b0111 &
1*
b0111 (
b0111 ,
#696
0*
#701
b0111 !
b1000 -
b01000 %
b1000 &
1*
b1000 (
b1000 ,
#706
0*
#711
b1000 !
b1001 -
b11001 %
b1001 &
1#
1*
1+
b0000 (
1/
b0000 ,
#716
0*
#721
b0000 !
b0001 -
b00001 %
b0001 &
0#
1*
0+
b0001 (
0/
b0001 ,
#726
0*
#731
b0001 !
b0010 -
b00010 %
b0010 &
1*
b0010 (
b0010 ,
#736
0*
#741
b0010 !
b0011 -
b00011 %
b0011 &
1*
b0011 (
b0011 ,
#746
0*
#751
b0011 !
b0100 -
b00100 %
b0100 &
1*
b0100 (
b0100 ,
#756
0*
#761
b0100 !
b0101 -
b00101 %
b0101 &
1*
b0101 (
b0101 ,
#766
0*
#771
b0101 !
b0110 -
b00110 %
b0110 &
1*
b0110 (
b0110 ,
#776
0*
#781
b0110 !
b0111 -
b00111 %
b0111 &
1*
b0111 (
b0111 ,
#786
0*
#791
b0111 !
b1000 -
b01000 %
b1000 &
1*
b1000 (
b1000 ,
#796
0*
#801
b1000 !
b1001 -
b11001 %
b1001 &
1#
1*
1+
b0000 (
1/
b0000 ,
#806
0*
#811
b0000 !
b0001 -
b00001 %
b0001 &
0#
1*
0+
b0001 (
0/
b0001 ,
#816
0*
#821
b0001 !
b0010 -
b00010 %
b0010 &
1*
b0010 (
b0010 ,
#826
0*
#831
b0010 !
b0011 -
b00011 %
b0011 &
1*
b0011 (
b0011 ,
#836
0*
#841
b0011 !
b0100 -
b00100 %
b0100 &
1*
b0100 (
b0100 ,
#846
0*
#851
b0100 !
b0101 -
b00101 %
b0101 &
1*
b0101 (
b0101 ,
#856
0*
#861
b0101 !
b0110 -
b00110 %
b0110 &
1*
b0110 (
b0110 ,
#866
0*
#871
b0110 !
b0111 -
b00111 %
b0111 &
1*
b0111 (
b0111 ,
#876
0*
#881
b0111 !
b1000 -
b01000 %
b1000 &
1*
b1000 (
b1000 ,
#886
0*
#891
b1000 !
b1001 -
b11001 %
b1001 &
1#
1*
1+
b0000 (
1/
b0000 ,
#896
0*
#901
b0000 !
b0001 -
b00001 %
b0001 &
0#
1*
0+
b0001 (
0/
b0001 ,
#906
0*
#911
b0001 !
b0010 -
b00010 %
b0010 &
1*
b0010 (
b0010 ,
#916
0*
#921
b0010 !
b0011 -
b00011 %
b0011 &
1*
b0011 (
b0011 ,
#926
0*
#931
b0011 !
b0100 -
b00100 %
b0100 &
1*
b0100 (
b0100 ,
#936
0*
#941
b0100 !
b0101 -
b00101 %
b0101 &
1*
b0101 (
b0101 ,
#946
0*
#951
b0101 !
b0110 -
b00110 %
b0110 &
1*
b0110 (
b0110 ,
#956
0*
#961
b0110 !
b0111 -
b00111 %
b0111 &
1*
b0111 (
b0111 ,
#966
0*
#971
b0111 !
b1000 -
b01000 %
b1000 &
1*
b1000 (
b1000 ,
#976
0*
#981
b1000 !
b1001 -
b11001 %
b1001 &
1#
1*
1+
b0000 (
1/
b0000 ,
#986
0*
#991
b0000 !
b0001 -
b00001 %
b0001 &
0#
1*
0+
b0001 (
0/
b0001 ,
#996
0*
#1001
b0001 !
b0010 -
b00010 %
b0010 &
1*
b0010 (
b0010 ,
#1006
0*
#1011
b0010 !
b0011 -
b00011 %
b0011 &
1*
b0011 (
b0011 ,
#1016
0*
#1021
b0011 !
b0100 -
b00100 %
b0100 &
1*
b0100 (
b0100 ,
#1026
0*
#1031
b0100 !
b0101 -
b00101 %
b0101 &
1*
b0101 (
b0101 ,
#1036
0*
#1041
b0101 !
b0110 -
b00110 %
b0110 &
1*
b0110 (
b0110 ,
#1046
0*
#1051
b0110 !
b0111 -
b00111 %
b0111 &
1*
b0111 (
b0111 ,
#1056
0*
#1061
b0111 !
b1000 -
b01000 %
b1000 &
1*
b1000 (
b1000 ,
#1066
0*
#1071
b1000 !
b1001 -
b11001 %
b1001 &
1#
1*
1+
b0000 (
1/
b0000 ,
#1076
0*
#1081
b0000 !
b0001 -
b00001 %
b0001 &
0#
1*
0+
b0001 (
0/
b0001 ,
#1086
0*
#1091
b0001 !
b0010 -
b00010 %
b0010 &
1*
b0010 (
b0010 ,
#1096
0*
#1101
b0010 !
b0011 -
b00011 %
b0011 &
1*
b0011 (
b0011 ,
#1106
0*
#1111
b0011 !
b0100 -
b00100 %
b0100 &
1*
b0100 (
b0100 ,
#1116
0*
#1121
b0100 !
b0101 -
b00101 %
b0101 &
1*
b0101 (
b0101 ,
#1126
0*
#1131
b0101 !
b0110 -
b00110 %
b0110 &
1*
b0110 (
b0110 ,
#1136
0*
#1141
b0110 !
b0111 -
b00111 %
b0111 &
1*
b0111 (
b0111 ,
#1146
0*
#1151
b0111 !
b1000 -
b01000 %
b1000 &
1*
b1000 (
b1000 ,
#1156
0*
#1161
b1000 !
b1001 -
b11001 %
b1001 &
1#
1*
1+
b0000 (
1/
b0000 ,
#1166
0*
#1171
b0000 !
b0001 -
b00001 %
b0001 &
0#
1*
0+
b0001 (
0/
b0001 ,
#1176
0*
#1181
b0001 !
b0010 -
b00010 %
b0010 &
1*
b0010 (
b0010 ,
#1186
0*
#1191
b0010 !
b0011 -
b00011 %
b0011 &
1*
b0011 (
b0011 ,
#1196
0*
#1201
b0011 !
b0100 -
b00100 %
b0100 &
1*
b0100 (
b0100 ,
#1206
0*
#1211
b0100 !
b0101 -
b00101 %
b0101 &
1*
b0101 (
b0101 ,
#1216
0*
#1221
b0101 !
b0110 -
b00110 %
b0110 &
1*
b0110 (
b0110 ,
#1226
0*
#1231
b0110 !
b0111 -
b00111 %
b0111 &
1*
b0111 (
b0111 ,
#1236
0*
#1241
b0111 !
b1000 -
b01000 %
b1000 &
1*
b1000 (
b1000 ,
#1246
0*
#1251
b1000 !
b1001 -
b11001 %
b1001 &
1#
1*
1+
b0000 (
1/
b0000 ,
#1256
0*
#1261
b0000 !
b0001 -
b00001 %
b0001 &
0#
1*
0+
b0001 (
0/
b0001 ,
#1266
0*
#1271
b0001 !
b0010 -
b00010 %
b0010 &
1*
b0010 (
b0010 ,
#1276
0*
#1281
b0010 !
b0011 -
b00011 %
b0011 &
1*
b0011 (
b0011 ,
#1286
0*
#1291
b0011 !
b0100 -
b00100 %
b0100 &
1*
b0100 (
b0100 ,
#1296
0*
#1301
b0100 !
b0101 -
b00101 %
b0101 &
1*
b0101 (
b0101 ,
#1306
0*
#1311
b0101 !
b0110 -
b00110 %
b0110 &
1*
b0110 (
b0110 ,
#1316
0*
#1321
b0110 !
b0111 -
b00111 %
b0111 &
1*
b0111 (
b0111 ,
#1326
0*
#1331
b0111 !
b1000 -
b01000 %
b1000 &
1*
b1000 (
b1000 ,
#1336
0*
#1341
b1000 !
b1001 -
b11001 %
b1001 &
1#
1*
1+
b0000 (
1/
b0000 ,
#1346
0*
#1351
b0000 !
b0001 -
b00001 %
b0001 &
0#
1*
0+
b0001 (
0/
b0001 ,
#1356
0*
#1361
b0001 !
b0010 -
b00010 %
b0010 &
1*
b0010 (
b0010 ,
#1366
0*
#1371
b0010 !
b0011 -
b00011 %
b0011 &
1*
b0011 (
b0011 ,
#1376
0*
#1381
b0011 !
b0100 -
b00100 %
b0100 &
1*
b0100 (
b0100 ,
#1386
0*
#1391
b0100 !
b0101 -
b00101 %
b0101 &
1*
b0101 (
b0101 ,
#1396
0*
#1401
b0101 !
b0110 -
b00110 %
b0110 &
1*
b0110 (
b0110 ,
#1406
0*
#1411
b0110 !
b0111 -
b00111 %
b0111 &
1*
b0111 (
b0111 ,
#1416
0*
#1421
b0111 !
b1000 -
b01000 %
b1000 &
1*
b1000 (
b1000 ,
#1426
0*
#1431
b1000 !
b1001 -
b11001 %
b1001 &
1#
1*
1+
b0000 (
1/
b0000 ,
#1436
0*
#1441
b0000 !
b0001 -
b00001 %
b0001 &
0#
1*
0+
b0001 (
0/
b0001 ,
#1446
0*
#1451
b0001 !
b0010 -
b00010 %
b0010 &
1*
b0010 (
b0010 ,
#1456
0*
#1461
b0010 !
b0011 -
b00011 %
b0011 &
1*
b0011 (
b0011 ,
#1466
0*
#1471
b0011 !
b0100 -
b00100 %
b0100 &
1*
b0100 (
b0100 ,
#1476
0*
#1481
b0100 !
b0101 -
b00101 %
b0101 &
1*
b0101 (
b0101 ,
#1486
0*
#1491
b0101 !
b0110 -
b00110 %
b0110 &
1*
b0110 (
b0110 ,
#1496
0*
#1501
b0110 !
b0111 -
b00111 %
b0111 &
1*
b0111 (
b0111 ,
#1506
0*
#1511
b0111 !
b1000 -
b01000 %
b1000 &
1*
b1000 (
b1000 ,
#1516
0*
#1521
b1000 !
b1001 -
b11001 %
b1001 &
1#
1*
1+
b0000 (
1/
b0000 ,
#1526
0*
#1531
b0000 !
b0001 -
b00001 %
b0001 &
0#
1*
0+
b0001 (
0/
b0001 ,
#1536
0*
#1541
b0001 !
b0010 -
b00010 %
b0010 &
1*
b0010 (
b0010 ,
#1546
0*
#1551
b0010 !
b0011 -
b00011 %
b0011 &
1*
b0011 (
b0011 ,
#1556
0*
#1561
b0011 !
b0100 -
b00100 %
b0100 &
1*
b0100 (
b0100 ,
#1566
0*
#1571
b0100 !
b0101 -
b00101 %
b0101 &
1*
b0101 (
b0101 ,
#1576
0*
#1581
b0101 !
b0110 -
b00110 %
b0110 &
1*
b0110 (
b0110 ,
#1586
0*
#1591
b0110 !
b0111 -
b00111 %
b0111 &
1*
b0111 (
b0111 ,
#1596
0*
#1601
b0111 !
b1000 -
b01000 %
b1000 &
1*
b1000 (
b1000 ,
#1606
0*
#1611
b1000 !
b1001 -
b11001 %
b1001 &
1#
1*
1+
b0000 (
1/
b0000 ,
#1616
0*
#1621
b0000 !
b0001 -
b00001 %
b0001 &
0#
1*
0+
b0001 (
0/
b0001 ,
#1626
0*
#1631
b0001 !
b0010 -
b00010 %
b0010 &
1*
b0010 (
b0010 ,
#1636
0*
#1641
b0010 !
b0011 -
b00011 %
b0011 &
1*
b0011 (
b0011 ,
#1646
0*
#1651
b0011 !
b0100 -
b00100 %
b0100 &
1*
b0100 (
b0100 ,
#1656
0*
#1661
b0100 !
b0101 -
b00101 %
b0101 &
1*
b0101 (
b0101 ,
#1666
0*
#1671
b0101 !
b0110 -
b00110 %
b0110 &
1*
b0110 (
b0110 ,
#1676
0*
#1681
b0110 !
b0111 -
b00111 %
b0111 &
1*
b0111 (
b0111 ,
#1686
0*
#1691
b0111 !
b1000 -
b01000 %
b1000 &
1*
b1000 (
b1000 ,
#1696
0*
#1701
b1000 !
b1001 -
b11001 %
b1001 &
1#
1*
1+
b0000 (
1/
b0000 ,
#1706
0*
#1711
b0000 !
b0001 -
b00001 %
b0001 &
0#
1*
0+
b0001 (
0/
b0001 ,
#1716
0*
#1721
b0001 !
b0010 -
b00010 %
b0010 &
1*
b0010 (
b0010 ,
#1726
0*
#1731
b0010 !
b0011 -
b00011 %
b0011 &
1*
b0011 (
b0011 ,
#1736
0*
#1741
b0011 !
b0100 -
b00100 %
b0100 &
1*
b0100 (
b0100 ,
#1746
0*
#1751
b0100 !
b0101 -
b00101 %
b0101 &
1*
b0101 (
b0101 ,
#1756
0*
#1761
b0101 !
b0110 -
b00110 %
b0110 &
1*
b0110 (
b0110 ,
#1766
0*
#1771
b0110 !
b0111 -
b00111 %
b0111 &
1*
b0111 (
b0111 ,
#1776
0*
#1781
b0111 !
b1000 -
b01000 %
b1000 &
1*
b1000 (
b1000 ,
#1786
0*
#1791
b1000 !
b1001 -
b11001 %
b1001 &
1#
1*
1+
b0000 (
1/
b0000 ,
#1796
0*
#1801
b0000 !
b0001 -
b00001 %
b0001 &
0#
1*
0+
b0001 (
0/
b0001 ,
#1806
0*
#1811
b0001 !
b0010 -
b00010 %
b0010 &
1*
b0010 (
b0010 ,
#1816
0*
#1821
b0010 !
b0011 -
b00011 %
b0011 &
1*
b0011 (
b0011 ,
#1826
0*
#1831
b0011 !
b0100 -
b00100 %
b0100 &
1*
b0100 (
b0100 ,
#1836
0*
#1841
b0100 !
b0101 -
b00101 %
b0101 &
1*
b0101 (
b0101 ,
#1846
0*
#1851
b0101 !
b0110 -
b00110 %
b0110 &
1*
b0110 (
b0110 ,
#1856
0*
#1861
b0110 !
b0111 -
b00111 %
b0111 &
1*
b0111 (
b0111 ,
#1866
0*
#1871
b0111 !
b1000 -
b01000 %
b1000 &
1*
b1000 (
b1000 ,
#1876
0*
#1881
b1000 !
b1001 -
b11001 %
b1001 &
1#
1*
1+
b0000 (
1/
b0000 ,
#1886
0*
#1891
b0000 !
b0001 -
b00001 %
b0001 &
0#
1*
0+
b0001 (
0/
b0001 ,
#1896
0*
#1901
b0001 !
b0010 -
b00010 %
b0010 &
1*
b0010 (
b0010 ,
#1906
0*
#1911
b0010 !
b0011 -
b00011 %
b0011 &
1*
b0011 (
b0011 ,
#1916
0*
#1921
b0011 !
b0100 -
b00100 %
b0100 &
1*
b0100 (
b0100 ,
#1926
0*
#1931
b0100 !
b0101 -
b00101 %
b0101 &
1*
b0101 (
b0101 ,
#1936
0*
#1941
b0101 !
b0110 -
b00110 %
b0110 &
1*
b0110 (
b0110 ,
#1946
0*
#1951
b0110 !
b0111 -
b00111 %
b0111 &
1*
b0111 (
b0111 ,
#1956
0*
#1961
b0111 !
b1000 -
b01000 %
b1000 &
1*
b1000 (
b1000 ,
#1966
0*
#1971
b1000 !
b1001 -
b11001 %
b1001 &
1#
1*
1+
b0000 (
1/
b0000 ,
#1976
0*
#1981
b0000 !
b0001 -
b00001 %
b0001 &
0#
1*
0+
b0001 (
0/
b0001 ,
#1986
0*
#1991
b0001 !
b0010 -
b00010 %
b0010 &
1*
b0010 (
b0010 ,
#1996
0*
#2001
b0010 !
b0011 -
b00011 %
b0011 &
1*
b0011 (
b0011 ,
#2006
0*
#2011
b0011 !
b0100 -
b00100 %
b0100 &
1*
b0100 (
b0100 ,
#2016
0*
#2021
b0100 !
b0101 -
b00101 %
b0101 &
1*
b0101 (
b0101 ,
#2026
0*
#2031
b0101 !
b0110 -
b00110 %
b0110 &
1*
b0110 (
b0110 ,
#2036
0*
#2041
b0110 !
b0111 -
b00111 %
b0111 &
1*
b0111 (
b0111 ,
#2046
0*
#2051
b0111 !
b1000 -
b01000 %
b1000 &
1*
b1000 (
b1000 ,
#2056
0*
#2061
b1000 !
b1001 -
b11001 %
b1001 &
1#
1*
1+
b0000 (
1/
b0000 ,
#2066
0*
#2071
b0000 !
b0001 -
b00001 %
b0001 &
0#
1*
0+
b0001 (
0/
b0001 ,
#2076
0*
#2081
b0001 !
b0010 -
b00010 %
b0010 &
1*
b0010 (
b0010 ,
#2086
0*
#2091
b0010 !
b0011 -
b00011 %
b0011 &
1*
b0011 (
b0011 ,
#2096
0*
#2101
b0011 !
b0100 -
b00100 %
b0100 &
1*
b0100 (
b0100 ,
#2106
0*
#2111
b0100 !
b0101 -
b00101 %
b0101 &
1*
b0101 (
b0101 ,
#2116
0*
#2121
b0101 !
b0110 -
b00110 %
b0110 &
1*
b0110 (
b0110 ,
#2126
0*
#2131
b0110 !
b0111 -
b00111 %
b0111 &
1*
b0111 (
b0111 ,
#2136
0*
#2141
b0111 !
b1000 -
b01000 %
b1000 &
1*
b1000 (
b1000 ,
#2146
0*
#2151
b1000 !
b1001 -
b11001 %
b1001 &
1#
1*
1+
b0000 (
1/
b0000 ,
#2156
0*
#2161
b0000 !
b0001 -
b00001 %
b0001 &
0#
1*
0+
b0001 (
0/
b0001 ,
#2166
0*
#2171
b0001 !
b0010 -
b00010 %
b0010 &
1*
b0010 (
b0010 ,
#2176
0*
#2181
b0010 !
b0011 -
b00011 %
b0011 &
1*
b0011 (
b0011 ,
#2186
0*
#2191
b0011 !
b0100 -
b00100 %
b0100 &
1*
b0100 (
b0100 ,
#2196
0*
#2201
b0100 !
b0101 -
b00101 %
b0101 &
1*
b0101 (
b0101 ,
#2206
0*
#2211
b0101 !
b0110 -
b00110 %
b0110 &
1*
b0110 (
b0110 ,
#2216
0*
#2221
b0110 !
b0111 -
b00111 %
b0111 &
1*
b0111 (
b0111 ,
#2226
0*
#2231
b0111 !
b1000 -
b01000 %
b1000 &
1*
b1000 (
b1000 ,
#2236
0*
#2241
b1000 !
b1001 -
b11001 %
b1001 &
1#
1*
1+
b0000 (
1/
b0000 ,
#2246
0*
#2251
b0000 !
b0001 -
b00001 %
b0001 &
0#
1*
0+
b0001 (
0/
b0001 ,
#2256
0*
#2261
b0001 !
b0010 -
b00010 %
b0010 &
1*
b0010 (
b0010 ,
#2266
0*
#2271
b0010 !
b0011 -
b00011 %
b0011 &
1*
b0011 (
b0011 ,
#2276
0*
#2281
b0011 !
b0100 -
b00100 %
b0100 &
1*
b0100 (
b0100 ,
#2286
0*
#2291
b0100 !
b0101 -
b00101 %
b0101 &
1*
b0101 (
b0101 ,
#2296
0*
#2301
b0101 !
b0110 -
b00110 %
b0110 &
1*
b0110 (
b0110 ,
#2306
0*
#2311
b0110 !
b0111 -
b00111 %
b0111 &
1*
b0111 (
b0111 ,
#2316
0*
#2321
b0111 !
b1000 -
b01000 %
b1000 &
1*
b1000 (
b1000 ,
#2326
0*
#2331
b1000 !
b1001 -
b11001 %
b1001 &
1#
1*
1+
b0000 (
1/
b0000 ,
#2336
0*
#2341
b0000 !
b0001 -
b00001 %
b0001 &
0#
1*
0+
b0001 (
0/
b0001 ,
#2346
0*
#2351
b0001 !
b0010 -
b00010 %
b0010 &
1*
b0010 (
b0010 ,
#2356
0*
#2361
b0010 !
b0011 -
b00011 %
b0011 &
1*
b0011 (
b0011 ,
#2366
0*
#2371
b0011 !
b0100 -
b00100 %
b0100 &
1*
b0100 (
b0100 ,
#2376
0*
#2381
b0100 !
b0101 -
b00101 %
b0101 &
1*
b0101 (
b0101 ,
#2386
0*
#2391
b0101 !
b0110 -
b00110 %
b0110 &
1*
b0110 (
b0110 ,
#2396
0*
#2401
b0110 !
b0111 -
b00111 %
b0111 &
1*
b0111 (
b0111 ,
#2406
0*
#2411
b0111 !
b1000 -
b01000 %
b1000 &
1*
b1000 (
b1000 ,
#2416
0*
#2421
b1000 !
b1001 -
b11001 %
b1001 &
1#
1*
1+
b0000 (
1/
b0000 ,
#2426
0*
#2431
b0000 !
b0001 -
b00001 %
b0001 &
0#
1*
0+
b0001 (
0/
b0001 ,
#2436
0*
#2441
b0001 !
b0010 -
b00010 %
b0010 &
1*
b0010 (
b0010 ,
#2446
0*
#2451
b0010 !
b0011 -
b00011 %
b0011 &
1*
b0011 (
b0011 ,
#2456
0*
#2461
b0011 !
b0100 -
b00100 %
b0100 &
1*
b0100 (
b0100 ,
#2466
0*
#2471
b0100 !
b0101 -
b00101 %
b0101 &
1*
b0101 (
b0101 ,
#2476
0*
#2481
b0101 !
b0110 -
b00110 %
b0110 &
1*
b0110 (
b0110 ,
#2486
0*
#2491
b0110 !
b0111 -
b00111 %
b0111 &
1*
b0111 (
b0111 ,
#2496
0*
#2501
b0111 !
b1000 -
b01000 %
b1000 &
1*
b1000 (
b1000 ,
#2506
0*
#2511
b1000 !
b1001 -
b11001 %
b1001 &
1#
1*
1+
b0000 (
1/
b0000 ,
#2516
0*
#2521
b0000 !
b0001 -
b00001 %
b0001 &
0#
1*
0+
b0001 (
0/
b0001 ,
#2526
0*
#2531
b0001 !
b0010 -
b00010 %
b0010 &
1*
b0010 (
b0010 ,
#2536
0*
#2541
b0010 !
b0011 -
b00011 %
b0011 &
1*
b0011 (
b0011 ,
#2546
0*
#2551
b0011 !
b0100 -
b00100 %
b0100 &
1*
b0100 (
b0100 ,
#2556
0*
#2561
b0100 !
b0101 -
b00101 %
b0101 &
1*
b0101 (
b0101 ,
#2566
0*
#2571
b0101 !
b0110 -
b00110 %
b0110 &
1*
b0110 (
b0110 ,
#2576
0*
#2581
b0110 !
b0111 -
b00111 %
b0111 &
1*
b0111 (
b0111 ,
#2586
0*
#2591
b0111 !
b1000 -
b01000 %
b1000 &
1*
b1000 (
b1000 ,
#2596
0*
#2601
b1000 !
b1001 -
b11001 %
b1001 &
1#
1*
1+
b0000 (
1/
b0000 ,
#2606
0*
#2611
b0000 !
b0001 -
b00001 %
b0001 &
0#
1*
0+
b0001 (
0/
b0001 ,
#2616
0*
#2621
b0001 !
b0010 -
b00010 %
b0010 &
1*
b0010 (
b0010 ,
#2626
0*
#2631
b0010 !
b0011 -
b00011 %
b0011 &
1*
b0011 (
b0011 ,
#2636
0*
#2641
b0011 !
b0100 -
b00100 %
b0100 &
1*
b0100 (
b0100 ,
#2646
0*
#2651
b0100 !
b0101 -
b00101 %
b0101 &
1*
b0101 (
b0101 ,
#2656
0*
#2661
b0101 !
b0110 -
b00110 %
b0110 &
1*
b0110 (
b0110 ,
#2666
0*
#2671
b0110 !
b0111 -
b00111 %
b0111 &
1*
b0111 (
b0111 ,
#2676
0*
#2681
b0111 !
b1000 -
b01000 %
b1000 &
1*
b1000 (
b1000 ,
#2686
0*
#2691
b1000 !
b1001 -
b11001 %
b1001 &
1#
1*
1+
b0000 (
1/
b0000 ,
#2696
0*
#2701
b0000 !
b0001 -
b00001 %
b0001 &
0#
1*
0+
b0001 (
0/
b0001 ,
#2706
0*
#2711
b0001 !
b0010 -
b00010 %
b0010 &
1*
b0010 (
b0010 ,
#2716
0*
#2721
b0010 !
b0011 -
b00011 %
b0011 &
1*
b0011 (
b0011 ,
#2726
0*
#2731
b0011 !
b0100 -
b00100 %
b0100 &
1*
b0100 (
b0100 ,
#2736
0*
#2741
b0100 !
b0101 -
b00101 %
b0101 &
1*
b0101 (
b0101 ,
#2746
0*
#2751
b0101 !
b0110 -
b00110 %
b0110 &
1*
b0110 (
b0110 ,
#2756
0*
#2761
b0110 !
b0111 -
b00111 %
b0111 &
1*
b0111 (
b0111 ,
#2766
0*
#2771
b0111 !
b1000 -
b01000 %
b1000 &
1*
b1000 (
b1000 ,
#2776
0*
