test_run_dir/Test1/Exercise1.vcd
$date
2021-03-24T10:18+0000
$end
$version
0.2
$end
$comment

$end
$timescale 1ns  $end
$scope module Exercise1 $end
 $var wire 16 ! count $end
 $var wire 1 " _T $end
 $var wire 9 # _max_T_2 $end
 $var wire 16 $ _io_result_T $end
 $var wire 17 % _count_T $end
 $var wire 16 & _count_T_1 $end
 $var wire 9 ' max $end
 $var wire 1 ( _GEN_1 $end
 $var wire 10 ) _max_T_1 $end
 $var wire 1 * clock $end
 $var wire 1 + io_result $end
 $var wire 16 , _GEN_0 $end
 $var wire 1 - reset $end
 $var wire 16 . _count_T_2 $end
$upscope $end
$enddefinitions $end
$dumpvars
b0000000000000000 $
0-
b0000000000000000 ,
b0000000000000000 .
b0000000000000000 &
b00000000000000000 %
0(
0"
b000000000 '
0*
b0000001111 )
b0000000000000000 !
0+
b000000000 #
$end
#0
1-
b00000000000000001 %
b0000000000000001 .
b0000000000000001 &
b000001111 #
b000001111 '
b0000000000000001 ,
#1
1*
#6
0-
0*
#11
b0000000000000001 !
b00000000000000010 %
b0000000000000010 .
b0000000000000010 &
1*
b0000000000000010 ,
#16
0*
#21
b0000000000000010 !
b00000000000000011 %
b0000000000000011 .
b0000000000000011 &
1*
b0000000000000011 ,
#26
0*
#31
b0000000000000011 !
b00000000000000100 %
b0000000000000100 .
b0000000000000100 &
1*
b0000000000000100 ,
#36
0*
#41
b0000000000000100 !
b00000000000000101 %
b0000000000000101 .
b0000000000000101 &
1*
b0000000000000101 ,
#46
0*
#51
b0000000000000101 !
b00000000000000110 %
b0000000000000110 .
b0000000000000110 &
1*
b0000000000000110 ,
#56
0*
#61
b0000000000000110 !
b00000000000000111 %
b0000000000000111 .
b0000000000000111 &
1*
b0000000000000111 ,
#66
0*
#71
b0000000000000111 !
b00000000000001000 %
b0000000000001000 .
b0000000000001000 &
1*
b0000000000001000 ,
#76
0*
#81
b0000000000001000 !
b00000000000001001 %
b0000000000001001 .
b0000000000001001 &
1*
b0000000000001001 ,
#86
0*
#91
b0000000000001001 !
b00000000000001010 %
b0000000000001010 .
b0000000000001010 &
1*
b0000000000001010 ,
#96
0*
#101
b0000000000001010 !
b00000000000001011 %
b0000000000001011 .
b0000000000001011 &
1*
b0000000000001011 ,
#106
0*
#111
b0000000000001011 !
b00000000000001100 %
b0000000000001100 .
b0000000000001100 &
1*
b0000000000001100 ,
#116
0*
#121
b0000000000001100 !
b00000000000001101 %
b0000000000001101 .
b0000000000001101 &
1*
b0000000000001101 ,
#126
0*
#131
b0000000000001101 !
b00000000000001110 %
b0000000000001110 .
b0000000000001110 &
1*
b0000000000001110 ,
#136
0*
#141
b0000000000001110 !
b00000000000001111 %
b0000000000001111 .
b0000000000001111 &
1*
b0000000000001111 ,
#146
0*
#151
b0000000000001111 !
b00000000000010000 %
1"
b0000000000010000 .
b0000000000010000 &
1*
b0000000000000000 ,
#156
0*
#161
b0000000000000000 !
b00000000000000001 %
0"
b0000000000000001 .
b0000000000000001 &
1*
b0000000000000001 ,
#166
0*
#171
b0000000000000001 !
b00000000000000010 %
b0000000000000010 .
b0000000000000010 &
1*
b0000000000000010 ,
#176
0*
#181
b0000000000000010 !
b00000000000000011 %
b0000000000000011 .
b0000000000000011 &
1*
b0000000000000011 ,
#186
0*
#191
b0000000000000011 !
b00000000000000100 %
b0000000000000100 .
b0000000000000100 &
1*
b0000000000000100 ,
#196
0*
#201
b0000000000000100 !
b00000000000000101 %
b0000000000000101 .
b0000000000000101 &
1*
b0000000000000101 ,
#206
0*
#211
b0000000000000101 !
b00000000000000110 %
b0000000000000110 .
b0000000000000110 &
1*
b0000000000000110 ,
#216
0*
#221
b0000000000000110 !
b00000000000000111 %
b0000000000000111 .
b0000000000000111 &
1*
b0000000000000111 ,
#226
0*
#231
b0000000000000111 !
b00000000000001000 %
b0000000000001000 .
b0000000000001000 &
1*
b0000000000001000 ,
#236
0*
#241
b0000000000001000 !
b00000000000001001 %
b0000000000001001 .
b0000000000001001 &
1*
b0000000000001001 ,
#246
0*
#251
b0000000000001001 !
b00000000000001010 %
b0000000000001010 .
b0000000000001010 &
1*
b0000000000001010 ,
#256
0*
#261
b0000000000001010 !
b00000000000001011 %
b0000000000001011 .
b0000000000001011 &
1*
b0000000000001011 ,
#266
0*
#271
b0000000000001011 !
b00000000000001100 %
b0000000000001100 .
b0000000000001100 &
1*
b0000000000001100 ,
#276
0*
#281
b0000000000001100 !
b00000000000001101 %
b0000000000001101 .
b0000000000001101 &
1*
b0000000000001101 ,
#286
0*
#291
b0000000000001101 !
b00000000000001110 %
b0000000000001110 .
b0000000000001110 &
1*
b0000000000001110 ,
#296
0*
#301
b0000000000001110 !
b00000000000001111 %
b0000000000001111 .
b0000000000001111 &
1*
b0000000000001111 ,
#306
0*
#311
b0000000000001111 !
b00000000000010000 %
1"
b0000000000010000 .
b0000000000010000 &
1*
b0000000000000000 ,
#316
0*
#321
b0000000000000000 !
b00000000000000001 %
0"
b0000000000000001 .
b0000000000000001 &
1*
b0000000000000001 ,
#326
0*
#331
b0000000000000001 !
b00000000000000010 %
b0000000000000010 .
b0000000000000010 &
1*
b0000000000000010 ,
#336
0*
#341
b0000000000000010 !
b00000000000000011 %
b0000000000000011 .
b0000000000000011 &
1*
b0000000000000011 ,
#346
0*
#351
b0000000000000011 !
b00000000000000100 %
b0000000000000100 .
b0000000000000100 &
1*
b0000000000000100 ,
#356
0*
#361
b0000000000000100 !
b00000000000000101 %
b0000000000000101 .
b0000000000000101 &
1*
b0000000000000101 ,
#366
0*
#371
b0000000000000101 !
b00000000000000110 %
b0000000000000110 .
b0000000000000110 &
1*
b0000000000000110 ,
#376
0*
#381
b0000000000000110 !
b00000000000000111 %
b0000000000000111 .
b0000000000000111 &
1*
b0000000000000111 ,
#386
0*
#391
b0000000000000111 !
b00000000000001000 %
b0000000000001000 .
b0000000000001000 &
1*
b0000000000001000 ,
#396
0*
#401
b0000000000001000 !
b00000000000001001 %
b0000000000001001 .
b0000000000001001 &
1*
b0000000000001001 ,
#406
0*
#411
b0000000000001001 !
b00000000000001010 %
b0000000000001010 .
b0000000000001010 &
1*
b0000000000001010 ,
#416
0*
#421
b0000000000001010 !
b00000000000001011 %
b0000000000001011 .
b0000000000001011 &
1*
b0000000000001011 ,
#426
0*
#431
b0000000000001011 !
b00000000000001100 %
b0000000000001100 .
b0000000000001100 &
1*
b0000000000001100 ,
#436
0*
#441
b0000000000001100 !
b00000000000001101 %
b0000000000001101 .
b0000000000001101 &
1*
b0000000000001101 ,
#446
0*
#451
b0000000000001101 !
b00000000000001110 %
b0000000000001110 .
b0000000000001110 &
1*
b0000000000001110 ,
#456
0*
#461
b0000000000001110 !
b00000000000001111 %
b0000000000001111 .
b0000000000001111 &
1*
b0000000000001111 ,
#466
0*
#471
b0000000000001111 !
b00000000000010000 %
1"
b0000000000010000 .
b0000000000010000 &
1*
b0000000000000000 ,
#476
0*
#481
b0000000000000000 !
b00000000000000001 %
0"
b0000000000000001 .
b0000000000000001 &
1*
b0000000000000001 ,
#486
0*
#491
b0000000000000001 !
b00000000000000010 %
b0000000000000010 .
b0000000000000010 &
1*
b0000000000000010 ,
#496
0*
#501
b0000000000000010 !
b00000000000000011 %
b0000000000000011 .
b0000000000000011 &
1*
b0000000000000011 ,
#506
0*
#511
b0000000000000011 !
b00000000000000100 %
b0000000000000100 .
b0000000000000100 &
1*
b0000000000000100 ,
#516
0*
#521
b0000000000000100 !
b00000000000000101 %
b0000000000000101 .
b0000000000000101 &
1*
b0000000000000101 ,
#526
0*
#531
b0000000000000101 !
b00000000000000110 %
b0000000000000110 .
b0000000000000110 &
1*
b0000000000000110 ,
#536
0*
#541
b0000000000000110 !
b00000000000000111 %
b0000000000000111 .
b0000000000000111 &
1*
b0000000000000111 ,
#546
0*
#551
b0000000000000111 !
b00000000000001000 %
b0000000000001000 .
b0000000000001000 &
1*
b0000000000001000 ,
#556
0*
#561
b0000000000001000 !
b00000000000001001 %
b0000000000001001 .
b0000000000001001 &
1*
b0000000000001001 ,
#566
0*
#571
b0000000000001001 !
b00000000000001010 %
b0000000000001010 .
b0000000000001010 &
1*
b0000000000001010 ,
#576
0*
#581
b0000000000001010 !
b00000000000001011 %
b0000000000001011 .
b0000000000001011 &
1*
b0000000000001011 ,
#586
0*
#591
b0000000000001011 !
b00000000000001100 %
b0000000000001100 .
b0000000000001100 &
1*
b0000000000001100 ,
#596
0*
#601
b0000000000001100 !
b00000000000001101 %
b0000000000001101 .
b0000000000001101 &
1*
b0000000000001101 ,
#606
0*
#611
b0000000000001101 !
b00000000000001110 %
b0000000000001110 .
b0000000000001110 &
1*
b0000000000001110 ,
#616
0*
#621
b0000000000001110 !
b00000000000001111 %
b0000000000001111 .
b0000000000001111 &
1*
b0000000000001111 ,
#626
0*
#631
b0000000000001111 !
b00000000000010000 %
1"
b0000000000010000 .
b0000000000010000 &
1*
b0000000000000000 ,
#636
0*
#641
b0000000000000000 !
b00000000000000001 %
0"
b0000000000000001 .
b0000000000000001 &
1*
b0000000000000001 ,
#646
0*
#651
b0000000000000001 !
b00000000000000010 %
b0000000000000010 .
b0000000000000010 &
1*
b0000000000000010 ,
#656
0*
#661
b0000000000000010 !
b00000000000000011 %
b0000000000000011 .
b0000000000000011 &
1*
b0000000000000011 ,
#666
0*
#671
b0000000000000011 !
b00000000000000100 %
b0000000000000100 .
b0000000000000100 &
1*
b0000000000000100 ,
#676
0*
#681
b0000000000000100 !
b00000000000000101 %
b0000000000000101 .
b0000000000000101 &
1*
b0000000000000101 ,
#686
0*
#691
b0000000000000101 !
b00000000000000110 %
b0000000000000110 .
b0000000000000110 &
1*
b0000000000000110 ,
#696
0*
#701
b0000000000000110 !
b00000000000000111 %
b0000000000000111 .
b0000000000000111 &
1*
b0000000000000111 ,
#706
0*
#711
b0000000000000111 !
b00000000000001000 %
b0000000000001000 .
b0000000000001000 &
1*
b0000000000001000 ,
#716
0*
#721
b0000000000001000 !
b00000000000001001 %
b0000000000001001 .
b0000000000001001 &
1*
b0000000000001001 ,
#726
0*
#731
b0000000000001001 !
b00000000000001010 %
b0000000000001010 .
b0000000000001010 &
1*
b0000000000001010 ,
#736
0*
#741
b0000000000001010 !
b00000000000001011 %
b0000000000001011 .
b0000000000001011 &
1*
b0000000000001011 ,
#746
0*
#751
b0000000000001011 !
b00000000000001100 %
b0000000000001100 .
b0000000000001100 &
1*
b0000000000001100 ,
#756
0*
#761
b0000000000001100 !
b00000000000001101 %
b0000000000001101 .
b0000000000001101 &
1*
b0000000000001101 ,
#766
0*
#771
b0000000000001101 !
b00000000000001110 %
b0000000000001110 .
b0000000000001110 &
1*
b0000000000001110 ,
#776
0*
#781
b0000000000001110 !
b00000000000001111 %
b0000000000001111 .
b0000000000001111 &
1*
b0000000000001111 ,
#786
0*
#791
b0000000000001111 !
b00000000000010000 %
1"
b0000000000010000 .
b0000000000010000 &
1*
b0000000000000000 ,
#796
0*
#801
b0000000000000000 !
b00000000000000001 %
0"
b0000000000000001 .
b0000000000000001 &
1*
b0000000000000001 ,
#806
0*
#811
b0000000000000001 !
b00000000000000010 %
b0000000000000010 .
b0000000000000010 &
1*
b0000000000000010 ,
#816
0*
#821
b0000000000000010 !
b00000000000000011 %
b0000000000000011 .
b0000000000000011 &
1*
b0000000000000011 ,
#826
0*
#831
b0000000000000011 !
b00000000000000100 %
b0000000000000100 .
b0000000000000100 &
1*
b0000000000000100 ,
#836
0*
#841
b0000000000000100 !
b00000000000000101 %
b0000000000000101 .
b0000000000000101 &
1*
b0000000000000101 ,
#846
0*
#851
b0000000000000101 !
b00000000000000110 %
b0000000000000110 .
b0000000000000110 &
1*
b0000000000000110 ,
#856
0*
#861
b0000000000000110 !
b00000000000000111 %
b0000000000000111 .
b0000000000000111 &
1*
b0000000000000111 ,
#866
0*
#871
b0000000000000111 !
b00000000000001000 %
b0000000000001000 .
b0000000000001000 &
1*
b0000000000001000 ,
#876
0*
#881
b0000000000001000 !
b00000000000001001 %
b0000000000001001 .
b0000000000001001 &
1*
b0000000000001001 ,
#886
0*
#891
b0000000000001001 !
b00000000000001010 %
b0000000000001010 .
b0000000000001010 &
1*
b0000000000001010 ,
#896
0*
#901
b0000000000001010 !
b00000000000001011 %
b0000000000001011 .
b0000000000001011 &
1*
b0000000000001011 ,
#906
0*
#911
b0000000000001011 !
b00000000000001100 %
b0000000000001100 .
b0000000000001100 &
1*
b0000000000001100 ,
#916
0*
#921
b0000000000001100 !
b00000000000001101 %
b0000000000001101 .
b0000000000001101 &
1*
b0000000000001101 ,
#926
0*
#931
b0000000000001101 !
b00000000000001110 %
b0000000000001110 .
b0000000000001110 &
1*
b0000000000001110 ,
#936
0*
#941
b0000000000001110 !
b00000000000001111 %
b0000000000001111 .
b0000000000001111 &
1*
b0000000000001111 ,
#946
0*
#951
b0000000000001111 !
b00000000000010000 %
1"
b0000000000010000 .
b0000000000010000 &
1*
b0000000000000000 ,
#956
0*
#961
b0000000000000000 !
b00000000000000001 %
0"
b0000000000000001 .
b0000000000000001 &
1*
b0000000000000001 ,
#966
0*
#971
b0000000000000001 !
b00000000000000010 %
b0000000000000010 .
b0000000000000010 &
1*
b0000000000000010 ,
#976
0*
#981
b0000000000000010 !
b00000000000000011 %
b0000000000000011 .
b0000000000000011 &
1*
b0000000000000011 ,
#986
0*
#991
b0000000000000011 !
b00000000000000100 %
b0000000000000100 .
b0000000000000100 &
1*
b0000000000000100 ,
#996
0*
#1001
b0000000000000100 !
b00000000000000101 %
b0000000000000101 .
b0000000000000101 &
1*
b0000000000000101 ,
#1006
0*
#1011
b0000000000000101 !
b00000000000000110 %
b0000000000000110 .
b0000000000000110 &
1*
b0000000000000110 ,
#1016
0*
#1021
b0000000000000110 !
b00000000000000111 %
b0000000000000111 .
b0000000000000111 &
1*
b0000000000000111 ,
#1026
0*
#1031
b0000000000000111 !
b00000000000001000 %
b0000000000001000 .
b0000000000001000 &
1*
b0000000000001000 ,
#1036
0*
#1041
b0000000000001000 !
b00000000000001001 %
b0000000000001001 .
b0000000000001001 &
1*
b0000000000001001 ,
#1046
0*
#1051
b0000000000001001 !
b00000000000001010 %
b0000000000001010 .
b0000000000001010 &
1*
b0000000000001010 ,
#1056
0*
#1061
b0000000000001010 !
b00000000000001011 %
b0000000000001011 .
b0000000000001011 &
1*
b0000000000001011 ,
#1066
0*
#1071
b0000000000001011 !
b00000000000001100 %
b0000000000001100 .
b0000000000001100 &
1*
b0000000000001100 ,
#1076
0*
#1081
b0000000000001100 !
b00000000000001101 %
b0000000000001101 .
b0000000000001101 &
1*
b0000000000001101 ,
#1086
0*
#1091
b0000000000001101 !
b00000000000001110 %
b0000000000001110 .
b0000000000001110 &
1*
b0000000000001110 ,
#1096
0*
#1101
b0000000000001110 !
b00000000000001111 %
b0000000000001111 .
b0000000000001111 &
1*
b0000000000001111 ,
#1106
0*
#1111
b0000000000001111 !
b00000000000010000 %
1"
b0000000000010000 .
b0000000000010000 &
1*
b0000000000000000 ,
#1116
0*
#1121
b0000000000000000 !
b00000000000000001 %
0"
b0000000000000001 .
b0000000000000001 &
1*
b0000000000000001 ,
#1126
0*
#1131
b0000000000000001 !
b00000000000000010 %
b0000000000000010 .
b0000000000000010 &
1*
b0000000000000010 ,
#1136
0*
#1141
b0000000000000010 !
b00000000000000011 %
b0000000000000011 .
b0000000000000011 &
1*
b0000000000000011 ,
#1146
0*
#1151
b0000000000000011 !
b00000000000000100 %
b0000000000000100 .
b0000000000000100 &
1*
b0000000000000100 ,
#1156
0*
#1161
b0000000000000100 !
b00000000000000101 %
b0000000000000101 .
b0000000000000101 &
1*
b0000000000000101 ,
#1166
0*
#1171
b0000000000000101 !
b00000000000000110 %
b0000000000000110 .
b0000000000000110 &
1*
b0000000000000110 ,
#1176
0*
#1181
b0000000000000110 !
b00000000000000111 %
b0000000000000111 .
b0000000000000111 &
1*
b0000000000000111 ,
#1186
0*
#1191
b0000000000000111 !
b00000000000001000 %
b0000000000001000 .
b0000000000001000 &
1*
b0000000000001000 ,
#1196
0*
#1201
b0000000000001000 !
b00000000000001001 %
b0000000000001001 .
b0000000000001001 &
1*
b0000000000001001 ,
#1206
0*
#1211
b0000000000001001 !
b00000000000001010 %
b0000000000001010 .
b0000000000001010 &
1*
b0000000000001010 ,
#1216
0*
#1221
b0000000000001010 !
b00000000000001011 %
b0000000000001011 .
b0000000000001011 &
1*
b0000000000001011 ,
#1226
0*
#1231
b0000000000001011 !
b00000000000001100 %
b0000000000001100 .
b0000000000001100 &
1*
b0000000000001100 ,
#1236
0*
#1241
b0000000000001100 !
b00000000000001101 %
b0000000000001101 .
b0000000000001101 &
1*
b0000000000001101 ,
#1246
0*
#1251
b0000000000001101 !
b00000000000001110 %
b0000000000001110 .
b0000000000001110 &
1*
b0000000000001110 ,
#1256
0*
#1261
b0000000000001110 !
b00000000000001111 %
b0000000000001111 .
b0000000000001111 &
1*
b0000000000001111 ,
#1266
0*
#1271
b0000000000001111 !
b00000000000010000 %
1"
b0000000000010000 .
b0000000000010000 &
1*
b0000000000000000 ,
#1276
0*
#1281
b0000000000000000 !
b00000000000000001 %
0"
b0000000000000001 .
b0000000000000001 &
1*
b0000000000000001 ,
#1286
0*
#1291
b0000000000000001 !
b00000000000000010 %
b0000000000000010 .
b0000000000000010 &
1*
b0000000000000010 ,
#1296
0*
#1301
b0000000000000010 !
b00000000000000011 %
b0000000000000011 .
b0000000000000011 &
1*
b0000000000000011 ,
#1306
0*
#1311
b0000000000000011 !
b00000000000000100 %
b0000000000000100 .
b0000000000000100 &
1*
b0000000000000100 ,
#1316
0*
#1321
b0000000000000100 !
b00000000000000101 %
b0000000000000101 .
b0000000000000101 &
1*
b0000000000000101 ,
#1326
0*
#1331
b0000000000000101 !
b00000000000000110 %
b0000000000000110 .
b0000000000000110 &
1*
b0000000000000110 ,
#1336
0*
#1341
b0000000000000110 !
b00000000000000111 %
b0000000000000111 .
b0000000000000111 &
1*
b0000000000000111 ,
#1346
0*
#1351
b0000000000000111 !
b00000000000001000 %
b0000000000001000 .
b0000000000001000 &
1*
b0000000000001000 ,
#1356
0*
#1361
b0000000000001000 !
b00000000000001001 %
b0000000000001001 .
b0000000000001001 &
1*
b0000000000001001 ,
#1366
0*
#1371
b0000000000001001 !
b00000000000001010 %
b0000000000001010 .
b0000000000001010 &
1*
b0000000000001010 ,
#1376
0*
#1381
b0000000000001010 !
b00000000000001011 %
b0000000000001011 .
b0000000000001011 &
1*
b0000000000001011 ,
#1386
0*
#1391
b0000000000001011 !
b00000000000001100 %
b0000000000001100 .
b0000000000001100 &
1*
b0000000000001100 ,
#1396
0*
#1401
b0000000000001100 !
b00000000000001101 %
b0000000000001101 .
b0000000000001101 &
1*
b0000000000001101 ,
#1406
0*
#1411
b0000000000001101 !
b00000000000001110 %
b0000000000001110 .
b0000000000001110 &
1*
b0000000000001110 ,
#1416
0*
#1421
b0000000000001110 !
b00000000000001111 %
b0000000000001111 .
b0000000000001111 &
1*
b0000000000001111 ,
#1426
0*
#1431
b0000000000001111 !
b00000000000010000 %
1"
b0000000000010000 .
b0000000000010000 &
1*
b0000000000000000 ,
#1436
0*
#1441
b0000000000000000 !
b00000000000000001 %
0"
b0000000000000001 .
b0000000000000001 &
1*
b0000000000000001 ,
#1446
0*
#1451
b0000000000000001 !
b00000000000000010 %
b0000000000000010 .
b0000000000000010 &
1*
b0000000000000010 ,
#1456
0*
#1461
b0000000000000010 !
b00000000000000011 %
b0000000000000011 .
b0000000000000011 &
1*
b0000000000000011 ,
#1466
0*
#1471
b0000000000000011 !
b00000000000000100 %
b0000000000000100 .
b0000000000000100 &
1*
b0000000000000100 ,
#1476
0*
#1481
b0000000000000100 !
b00000000000000101 %
b0000000000000101 .
b0000000000000101 &
1*
b0000000000000101 ,
#1486
0*
#1491
b0000000000000101 !
b00000000000000110 %
b0000000000000110 .
b0000000000000110 &
1*
b0000000000000110 ,
#1496
0*
#1501
b0000000000000110 !
b00000000000000111 %
b0000000000000111 .
b0000000000000111 &
1*
b0000000000000111 ,
#1506
0*
#1511
b0000000000000111 !
b00000000000001000 %
b0000000000001000 .
b0000000000001000 &
1*
b0000000000001000 ,
#1516
0*
#1521
b0000000000001000 !
b00000000000001001 %
b0000000000001001 .
b0000000000001001 &
1*
b0000000000001001 ,
#1526
0*
#1531
b0000000000001001 !
b00000000000001010 %
b0000000000001010 .
b0000000000001010 &
1*
b0000000000001010 ,
#1536
0*
#1541
b0000000000001010 !
b00000000000001011 %
b0000000000001011 .
b0000000000001011 &
1*
b0000000000001011 ,
#1546
0*
#1551
b0000000000001011 !
b00000000000001100 %
b0000000000001100 .
b0000000000001100 &
1*
b0000000000001100 ,
#1556
0*
#1561
b0000000000001100 !
b00000000000001101 %
b0000000000001101 .
b0000000000001101 &
1*
b0000000000001101 ,
#1566
0*
#1571
b0000000000001101 !
b00000000000001110 %
b0000000000001110 .
b0000000000001110 &
1*
b0000000000001110 ,
#1576
0*
#1581
b0000000000001110 !
b00000000000001111 %
b0000000000001111 .
b0000000000001111 &
1*
b0000000000001111 ,
#1586
0*
#1591
b0000000000001111 !
b00000000000010000 %
1"
b0000000000010000 .
b0000000000010000 &
1*
b0000000000000000 ,
#1596
0*
#1601
b0000000000000000 !
b00000000000000001 %
0"
b0000000000000001 .
b0000000000000001 &
1*
b0000000000000001 ,
#1606
0*
#1611
b0000000000000001 !
b00000000000000010 %
b0000000000000010 .
b0000000000000010 &
1*
b0000000000000010 ,
#1616
0*
#1621
b0000000000000010 !
b00000000000000011 %
b0000000000000011 .
b0000000000000011 &
1*
b0000000000000011 ,
#1626
0*
#1631
b0000000000000011 !
b00000000000000100 %
b0000000000000100 .
b0000000000000100 &
1*
b0000000000000100 ,
#1636
0*
#1641
b0000000000000100 !
b00000000000000101 %
b0000000000000101 .
b0000000000000101 &
1*
b0000000000000101 ,
#1646
0*
#1651
b0000000000000101 !
b00000000000000110 %
b0000000000000110 .
b0000000000000110 &
1*
b0000000000000110 ,
#1656
0*
#1661
b0000000000000110 !
b00000000000000111 %
b0000000000000111 .
b0000000000000111 &
1*
b0000000000000111 ,
#1666
0*
#1671
b0000000000000111 !
b00000000000001000 %
b0000000000001000 .
b0000000000001000 &
1*
b0000000000001000 ,
#1676
0*
#1681
b0000000000001000 !
b00000000000001001 %
b0000000000001001 .
b0000000000001001 &
1*
b0000000000001001 ,
#1686
0*
#1691
b0000000000001001 !
b00000000000001010 %
b0000000000001010 .
b0000000000001010 &
1*
b0000000000001010 ,
#1696
0*
#1701
b0000000000001010 !
b00000000000001011 %
b0000000000001011 .
b0000000000001011 &
1*
b0000000000001011 ,
#1706
0*
#1711
b0000000000001011 !
b00000000000001100 %
b0000000000001100 .
b0000000000001100 &
1*
b0000000000001100 ,
#1716
0*
#1721
b0000000000001100 !
b00000000000001101 %
b0000000000001101 .
b0000000000001101 &
1*
b0000000000001101 ,
#1726
0*
#1731
b0000000000001101 !
b00000000000001110 %
b0000000000001110 .
b0000000000001110 &
1*
b0000000000001110 ,
#1736
0*
#1741
b0000000000001110 !
b00000000000001111 %
b0000000000001111 .
b0000000000001111 &
1*
b0000000000001111 ,
#1746
0*
#1751
b0000000000001111 !
b00000000000010000 %
1"
b0000000000010000 .
b0000000000010000 &
1*
b0000000000000000 ,
#1756
0*
#1761
b0000000000000000 !
b00000000000000001 %
0"
b0000000000000001 .
b0000000000000001 &
1*
b0000000000000001 ,
#1766
0*
#1771
b0000000000000001 !
b00000000000000010 %
b0000000000000010 .
b0000000000000010 &
1*
b0000000000000010 ,
#1776
0*
#1781
b0000000000000010 !
b00000000000000011 %
b0000000000000011 .
b0000000000000011 &
1*
b0000000000000011 ,
#1786
0*
#1791
b0000000000000011 !
b00000000000000100 %
b0000000000000100 .
b0000000000000100 &
1*
b0000000000000100 ,
#1796
0*
#1801
b0000000000000100 !
b00000000000000101 %
b0000000000000101 .
b0000000000000101 &
1*
b0000000000000101 ,
#1806
0*
#1811
b0000000000000101 !
b00000000000000110 %
b0000000000000110 .
b0000000000000110 &
1*
b0000000000000110 ,
#1816
0*
#1821
b0000000000000110 !
b00000000000000111 %
b0000000000000111 .
b0000000000000111 &
1*
b0000000000000111 ,
#1826
0*
#1831
b0000000000000111 !
b00000000000001000 %
b0000000000001000 .
b0000000000001000 &
1*
b0000000000001000 ,
#1836
0*
#1841
b0000000000001000 !
b00000000000001001 %
b0000000000001001 .
b0000000000001001 &
1*
b0000000000001001 ,
#1846
0*
#1851
b0000000000001001 !
b00000000000001010 %
b0000000000001010 .
b0000000000001010 &
1*
b0000000000001010 ,
#1856
0*
#1861
b0000000000001010 !
b00000000000001011 %
b0000000000001011 .
b0000000000001011 &
1*
b0000000000001011 ,
#1866
0*
#1871
b0000000000001011 !
b00000000000001100 %
b0000000000001100 .
b0000000000001100 &
1*
b0000000000001100 ,
#1876
0*
#1881
b0000000000001100 !
b00000000000001101 %
b0000000000001101 .
b0000000000001101 &
1*
b0000000000001101 ,
#1886
0*
#1891
b0000000000001101 !
b00000000000001110 %
b0000000000001110 .
b0000000000001110 &
1*
b0000000000001110 ,
#1896
0*
#1901
b0000000000001110 !
b00000000000001111 %
b0000000000001111 .
b0000000000001111 &
1*
b0000000000001111 ,
#1906
0*
#1911
b0000000000001111 !
b00000000000010000 %
1"
b0000000000010000 .
b0000000000010000 &
1*
b0000000000000000 ,
#1916
0*
#1921
b0000000000000000 !
b00000000000000001 %
0"
b0000000000000001 .
b0000000000000001 &
1*
b0000000000000001 ,
#1926
0*
#1931
b0000000000000001 !
b00000000000000010 %
b0000000000000010 .
b0000000000000010 &
1*
b0000000000000010 ,
#1936
0*
#1941
b0000000000000010 !
b00000000000000011 %
b0000000000000011 .
b0000000000000011 &
1*
b0000000000000011 ,
#1946
0*
#1951
b0000000000000011 !
b00000000000000100 %
b0000000000000100 .
b0000000000000100 &
1*
b0000000000000100 ,
#1956
0*
#1961
b0000000000000100 !
b00000000000000101 %
b0000000000000101 .
b0000000000000101 &
1*
b0000000000000101 ,
#1966
0*
#1971
b0000000000000101 !
b00000000000000110 %
b0000000000000110 .
b0000000000000110 &
1*
b0000000000000110 ,
#1976
0*
#1981
b0000000000000110 !
b00000000000000111 %
b0000000000000111 .
b0000000000000111 &
1*
b0000000000000111 ,
#1986
0*
#1991
b0000000000000111 !
b00000000000001000 %
b0000000000001000 .
b0000000000001000 &
1*
b0000000000001000 ,
#1996
0*
#2001
b0000000000001000 !
b00000000000001001 %
b0000000000001001 .
b0000000000001001 &
1*
b0000000000001001 ,
#2006
0*
#2011
b0000000000001001 !
b00000000000001010 %
b0000000000001010 .
b0000000000001010 &
1*
b0000000000001010 ,
#2016
0*
#2021
b0000000000001010 !
b00000000000001011 %
b0000000000001011 .
b0000000000001011 &
1*
b0000000000001011 ,
#2026
0*
#2031
b0000000000001011 !
b00000000000001100 %
b0000000000001100 .
b0000000000001100 &
1*
b0000000000001100 ,
#2036
0*
#2041
b0000000000001100 !
b00000000000001101 %
b0000000000001101 .
b0000000000001101 &
1*
b0000000000001101 ,
#2046
0*
#2051
b0000000000001101 !
b00000000000001110 %
b0000000000001110 .
b0000000000001110 &
1*
b0000000000001110 ,
#2056
0*
#2061
b0000000000001110 !
b00000000000001111 %
b0000000000001111 .
b0000000000001111 &
1*
b0000000000001111 ,
#2066
0*
#2071
b0000000000001111 !
b00000000000010000 %
1"
b0000000000010000 .
b0000000000010000 &
1*
b0000000000000000 ,
#2076
0*
#2081
b0000000000000000 !
b00000000000000001 %
0"
b0000000000000001 .
b0000000000000001 &
1*
b0000000000000001 ,
#2086
0*
#2091
b0000000000000001 !
b00000000000000010 %
b0000000000000010 .
b0000000000000010 &
1*
b0000000000000010 ,
#2096
0*
#2101
b0000000000000010 !
b00000000000000011 %
b0000000000000011 .
b0000000000000011 &
1*
b0000000000000011 ,
#2106
0*
#2111
b0000000000000011 !
b00000000000000100 %
b0000000000000100 .
b0000000000000100 &
1*
b0000000000000100 ,
#2116
0*
#2121
b0000000000000100 !
b00000000000000101 %
b0000000000000101 .
b0000000000000101 &
1*
b0000000000000101 ,
#2126
0*
#2131
b0000000000000101 !
b00000000000000110 %
b0000000000000110 .
b0000000000000110 &
1*
b0000000000000110 ,
#2136
0*
#2141
b0000000000000110 !
b00000000000000111 %
b0000000000000111 .
b0000000000000111 &
1*
b0000000000000111 ,
#2146
0*
#2151
b0000000000000111 !
b00000000000001000 %
b0000000000001000 .
b0000000000001000 &
1*
b0000000000001000 ,
#2156
0*
#2161
b0000000000001000 !
b00000000000001001 %
b0000000000001001 .
b0000000000001001 &
1*
b0000000000001001 ,
#2166
0*
#2171
b0000000000001001 !
b00000000000001010 %
b0000000000001010 .
b0000000000001010 &
1*
b0000000000001010 ,
#2176
0*
#2181
b0000000000001010 !
b00000000000001011 %
b0000000000001011 .
b0000000000001011 &
1*
b0000000000001011 ,
#2186
0*
#2191
b0000000000001011 !
b00000000000001100 %
b0000000000001100 .
b0000000000001100 &
1*
b0000000000001100 ,
#2196
0*
#2201
b0000000000001100 !
b00000000000001101 %
b0000000000001101 .
b0000000000001101 &
1*
b0000000000001101 ,
#2206
0*
#2211
b0000000000001101 !
b00000000000001110 %
b0000000000001110 .
b0000000000001110 &
1*
b0000000000001110 ,
#2216
0*
#2221
b0000000000001110 !
b00000000000001111 %
b0000000000001111 .
b0000000000001111 &
1*
b0000000000001111 ,
#2226
0*
#2231
b0000000000001111 !
b00000000000010000 %
1"
b0000000000010000 .
b0000000000010000 &
1*
b0000000000000000 ,
#2236
0*
#2241
b0000000000000000 !
b00000000000000001 %
0"
b0000000000000001 .
b0000000000000001 &
1*
b0000000000000001 ,
#2246
0*
