test_run_dir/Test1/Exercise2.vcd
$date
2021-03-22T18:05+0000
$end
$version
0.2
$end
$comment

$end
$timescale 1ns  $end
$scope module Exercise2 $end
 $var wire 16 ! count $end
 $var wire 1 " _GEN_2 $end
 $var wire 1 # _T $end
 $var wire 9 $ _max_T_2 $end
 $var wire 16 % _io_result_T $end
 $var wire 17 & _count_T $end
 $var wire 16 ' _count_T_1 $end
 $var wire 9 ( max $end
 $var wire 16 ) _GEN_1 $end
 $var wire 10 * _max_T_1 $end
 $var wire 1 + clock $end
 $var wire 1 , io_result $end
 $var wire 16 - _GEN_0 $end
 $var wire 16 . _count_T_2 $end
 $var wire 1 / reset $end
$upscope $end
$enddefinitions $end
$dumpvars
b0000000000000000 %
b000000000 $
b0000000000000000 -
0/
b0000000000000000 .
b0000000000000000 '
0"
b00000000000000000 &
0#
b000000000 (
b0000000000000000 )
b0000000000000000 !
0+
b0000001111 *
0,
$end
#0
b0000000000000001 -
b0000000000000001 .
b00000000000000001 &
b0000000000000001 '
b000001111 $
b000001111 (
1/
b0000000000000001 )
#1
1+
#6
0+
0/
#11
b0000000000000001 !
b0000000000000010 -
b0000000000000010 .
b00000000000000010 &
b0000000000000010 '
1+
b0000000000000010 )
#16
0+
#21
b0000000000000010 !
b0000000000000011 -
b0000000000000011 .
b00000000000000011 &
b0000000000000011 '
1+
b0000000000000011 )
#26
0+
#31
b0000000000000011 !
b0000000000000100 -
b0000000000000100 .
b00000000000000100 &
b0000000000000100 '
1+
b0000000000000100 )
#36
0+
#41
b0000000000000100 !
b0000000000000101 -
b0000000000000101 .
b00000000000000101 &
b0000000000000101 '
1+
b0000000000000101 )
#46
0+
#51
b0000000000000101 !
b0000000000000110 -
b0000000000000110 .
b00000000000000110 &
b0000000000000110 '
1+
b0000000000000110 )
#56
0+
#61
b0000000000000110 !
b0000000000000111 -
b0000000000000111 .
b00000000000000111 &
b0000000000000111 '
1+
b0000000000000111 )
#66
0+
#71
b0000000000000111 !
b0000000000001000 -
b0000000000001000 .
b00000000000001000 &
b0000000000001000 '
1+
b0000000000001000 )
#76
0+
#81
b0000000000001000 !
b0000000000000000 -
b0000000000001001 .
b00000000000001001 &
b0000000000001001 '
1+
b0000000000000000 )
#86
0+
#91
b0000000000000000 !
b0000000000000001 -
b0000000000000001 .
b00000000000000001 &
b0000000000000001 '
1+
b0000000000000001 )
#96
0+
#101
b0000000000000001 !
b0000000000000010 -
b0000000000000010 .
b00000000000000010 &
b0000000000000010 '
1+
b0000000000000010 )
#106
0+
#111
b0000000000000010 !
b0000000000000011 -
b0000000000000011 .
b00000000000000011 &
b0000000000000011 '
1+
b0000000000000011 )
#116
0+
#121
b0000000000000011 !
b0000000000000100 -
b0000000000000100 .
b00000000000000100 &
b0000000000000100 '
1+
b0000000000000100 )
#126
0+
#131
b0000000000000100 !
b0000000000000101 -
b0000000000000101 .
b00000000000000101 &
b0000000000000101 '
1+
b0000000000000101 )
#136
0+
#141
b0000000000000101 !
b0000000000000110 -
b0000000000000110 .
b00000000000000110 &
b0000000000000110 '
1+
b0000000000000110 )
#146
0+
#151
b0000000000000110 !
b0000000000000111 -
b0000000000000111 .
b00000000000000111 &
b0000000000000111 '
1+
b0000000000000111 )
#156
0+
#161
b0000000000000111 !
b0000000000001000 -
b0000000000001000 .
b00000000000001000 &
b0000000000001000 '
1+
b0000000000001000 )
#166
0+
#171
b0000000000001000 !
b0000000000000000 -
b0000000000001001 .
b00000000000001001 &
b0000000000001001 '
1+
b0000000000000000 )
#176
0+
#181
b0000000000000000 !
b0000000000000001 -
b0000000000000001 .
b00000000000000001 &
b0000000000000001 '
1+
b0000000000000001 )
#186
0+
#191
b0000000000000001 !
b0000000000000010 -
b0000000000000010 .
b00000000000000010 &
b0000000000000010 '
1+
b0000000000000010 )
#196
0+
#201
b0000000000000010 !
b0000000000000011 -
b0000000000000011 .
b00000000000000011 &
b0000000000000011 '
1+
b0000000000000011 )
#206
0+
#211
b0000000000000011 !
b0000000000000100 -
b0000000000000100 .
b00000000000000100 &
b0000000000000100 '
1+
b0000000000000100 )
#216
0+
#221
b0000000000000100 !
b0000000000000101 -
b0000000000000101 .
b00000000000000101 &
b0000000000000101 '
1+
b0000000000000101 )
#226
0+
#231
b0000000000000101 !
b0000000000000110 -
b0000000000000110 .
b00000000000000110 &
b0000000000000110 '
1+
b0000000000000110 )
#236
0+
#241
b0000000000000110 !
b0000000000000111 -
b0000000000000111 .
b00000000000000111 &
b0000000000000111 '
1+
b0000000000000111 )
#246
0+
#251
b0000000000000111 !
b0000000000001000 -
b0000000000001000 .
b00000000000001000 &
b0000000000001000 '
1+
b0000000000001000 )
#256
0+
#261
b0000000000001000 !
b0000000000000000 -
b0000000000001001 .
b00000000000001001 &
b0000000000001001 '
1+
b0000000000000000 )
#266
0+
#271
b0000000000000000 !
b0000000000000001 -
b0000000000000001 .
b00000000000000001 &
b0000000000000001 '
1+
b0000000000000001 )
#276
0+
#281
b0000000000000001 !
b0000000000000010 -
b0000000000000010 .
b00000000000000010 &
b0000000000000010 '
1+
b0000000000000010 )
#286
0+
#291
b0000000000000010 !
b0000000000000011 -
b0000000000000011 .
b00000000000000011 &
b0000000000000011 '
1+
b0000000000000011 )
#296
0+
#301
b0000000000000011 !
b0000000000000100 -
b0000000000000100 .
b00000000000000100 &
b0000000000000100 '
1+
b0000000000000100 )
#306
0+
#311
b0000000000000100 !
b0000000000000101 -
b0000000000000101 .
b00000000000000101 &
b0000000000000101 '
1+
b0000000000000101 )
#316
0+
#321
b0000000000000101 !
b0000000000000110 -
b0000000000000110 .
b00000000000000110 &
b0000000000000110 '
1+
b0000000000000110 )
#326
0+
#331
b0000000000000110 !
b0000000000000111 -
b0000000000000111 .
b00000000000000111 &
b0000000000000111 '
1+
b0000000000000111 )
#336
0+
#341
b0000000000000111 !
b0000000000001000 -
b0000000000001000 .
b00000000000001000 &
b0000000000001000 '
1+
b0000000000001000 )
#346
0+
#351
b0000000000001000 !
b0000000000000000 -
b0000000000001001 .
b00000000000001001 &
b0000000000001001 '
1+
b0000000000000000 )
#356
0+
#361
b0000000000000000 !
b0000000000000001 -
b0000000000000001 .
b00000000000000001 &
b0000000000000001 '
1+
b0000000000000001 )
#366
0+
#371
b0000000000000001 !
b0000000000000010 -
b0000000000000010 .
b00000000000000010 &
b0000000000000010 '
1+
b0000000000000010 )
#376
0+
#381
b0000000000000010 !
b0000000000000011 -
b0000000000000011 .
b00000000000000011 &
b0000000000000011 '
1+
b0000000000000011 )
#386
0+
#391
b0000000000000011 !
b0000000000000100 -
b0000000000000100 .
b00000000000000100 &
b0000000000000100 '
1+
b0000000000000100 )
#396
0+
#401
b0000000000000100 !
b0000000000000101 -
b0000000000000101 .
b00000000000000101 &
b0000000000000101 '
1+
b0000000000000101 )
#406
0+
#411
b0000000000000101 !
b0000000000000110 -
b0000000000000110 .
b00000000000000110 &
b0000000000000110 '
1+
b0000000000000110 )
#416
0+
#421
b0000000000000110 !
b0000000000000111 -
b0000000000000111 .
b00000000000000111 &
b0000000000000111 '
1+
b0000000000000111 )
#426
0+
#431
b0000000000000111 !
b0000000000001000 -
b0000000000001000 .
b00000000000001000 &
b0000000000001000 '
1+
b0000000000001000 )
#436
0+
#441
b0000000000001000 !
b0000000000000000 -
b0000000000001001 .
b00000000000001001 &
b0000000000001001 '
1+
b0000000000000000 )
#446
0+
#451
b0000000000000000 !
b0000000000000001 -
b0000000000000001 .
b00000000000000001 &
b0000000000000001 '
1+
b0000000000000001 )
#456
0+
#461
b0000000000000001 !
b0000000000000010 -
b0000000000000010 .
b00000000000000010 &
b0000000000000010 '
1+
b0000000000000010 )
#466
0+
#471
b0000000000000010 !
b0000000000000011 -
b0000000000000011 .
b00000000000000011 &
b0000000000000011 '
1+
b0000000000000011 )
#476
0+
#481
b0000000000000011 !
b0000000000000100 -
b0000000000000100 .
b00000000000000100 &
b0000000000000100 '
1+
b0000000000000100 )
#486
0+
#491
b0000000000000100 !
b0000000000000101 -
b0000000000000101 .
b00000000000000101 &
b0000000000000101 '
1+
b0000000000000101 )
#496
0+
#501
b0000000000000101 !
b0000000000000110 -
b0000000000000110 .
b00000000000000110 &
b0000000000000110 '
1+
b0000000000000110 )
#506
0+
#511
b0000000000000110 !
b0000000000000111 -
b0000000000000111 .
b00000000000000111 &
b0000000000000111 '
1+
b0000000000000111 )
#516
0+
#521
b0000000000000111 !
b0000000000001000 -
b0000000000001000 .
b00000000000001000 &
b0000000000001000 '
1+
b0000000000001000 )
#526
0+
#531
b0000000000001000 !
b0000000000000000 -
b0000000000001001 .
b00000000000001001 &
b0000000000001001 '
1+
b0000000000000000 )
#536
0+
#541
b0000000000000000 !
b0000000000000001 -
b0000000000000001 .
b00000000000000001 &
b0000000000000001 '
1+
b0000000000000001 )
#546
0+
#551
b0000000000000001 !
b0000000000000010 -
b0000000000000010 .
b00000000000000010 &
b0000000000000010 '
1+
b0000000000000010 )
#556
0+
#561
b0000000000000010 !
b0000000000000011 -
b0000000000000011 .
b00000000000000011 &
b0000000000000011 '
1+
b0000000000000011 )
#566
0+
#571
b0000000000000011 !
b0000000000000100 -
b0000000000000100 .
b00000000000000100 &
b0000000000000100 '
1+
b0000000000000100 )
#576
0+
#581
b0000000000000100 !
b0000000000000101 -
b0000000000000101 .
b00000000000000101 &
b0000000000000101 '
1+
b0000000000000101 )
#586
0+
#591
b0000000000000101 !
b0000000000000110 -
b0000000000000110 .
b00000000000000110 &
b0000000000000110 '
1+
b0000000000000110 )
#596
0+
#601
b0000000000000110 !
b0000000000000111 -
b0000000000000111 .
b00000000000000111 &
b0000000000000111 '
1+
b0000000000000111 )
#606
0+
#611
b0000000000000111 !
b0000000000001000 -
b0000000000001000 .
b00000000000001000 &
b0000000000001000 '
1+
b0000000000001000 )
#616
0+
#621
b0000000000001000 !
b0000000000000000 -
b0000000000001001 .
b00000000000001001 &
b0000000000001001 '
1+
b0000000000000000 )
#626
0+
#631
b0000000000000000 !
b0000000000000001 -
b0000000000000001 .
b00000000000000001 &
b0000000000000001 '
1+
b0000000000000001 )
#636
0+
#641
b0000000000000001 !
b0000000000000010 -
b0000000000000010 .
b00000000000000010 &
b0000000000000010 '
1+
b0000000000000010 )
#646
0+
#651
b0000000000000010 !
b0000000000000011 -
b0000000000000011 .
b00000000000000011 &
b0000000000000011 '
1+
b0000000000000011 )
#656
0+
#661
b0000000000000011 !
b0000000000000100 -
b0000000000000100 .
b00000000000000100 &
b0000000000000100 '
1+
b0000000000000100 )
#666
0+
#671
b0000000000000100 !
b0000000000000101 -
b0000000000000101 .
b00000000000000101 &
b0000000000000101 '
1+
b0000000000000101 )
#676
0+
#681
b0000000000000101 !
b0000000000000110 -
b0000000000000110 .
b00000000000000110 &
b0000000000000110 '
1+
b0000000000000110 )
#686
0+
#691
b0000000000000110 !
b0000000000000111 -
b0000000000000111 .
b00000000000000111 &
b0000000000000111 '
1+
b0000000000000111 )
#696
0+
#701
b0000000000000111 !
b0000000000001000 -
b0000000000001000 .
b00000000000001000 &
b0000000000001000 '
1+
b0000000000001000 )
#706
0+
#711
b0000000000001000 !
b0000000000000000 -
b0000000000001001 .
b00000000000001001 &
b0000000000001001 '
1+
b0000000000000000 )
#716
0+
#721
b0000000000000000 !
b0000000000000001 -
b0000000000000001 .
b00000000000000001 &
b0000000000000001 '
1+
b0000000000000001 )
#726
0+
#731
b0000000000000001 !
b0000000000000010 -
b0000000000000010 .
b00000000000000010 &
b0000000000000010 '
1+
b0000000000000010 )
#736
0+
#741
b0000000000000010 !
b0000000000000011 -
b0000000000000011 .
b00000000000000011 &
b0000000000000011 '
1+
b0000000000000011 )
#746
0+
#751
b0000000000000011 !
b0000000000000100 -
b0000000000000100 .
b00000000000000100 &
b0000000000000100 '
1+
b0000000000000100 )
#756
0+
#761
b0000000000000100 !
b0000000000000101 -
b0000000000000101 .
b00000000000000101 &
b0000000000000101 '
1+
b0000000000000101 )
#766
0+
#771
b0000000000000101 !
b0000000000000110 -
b0000000000000110 .
b00000000000000110 &
b0000000000000110 '
1+
b0000000000000110 )
#776
0+
#781
b0000000000000110 !
b0000000000000111 -
b0000000000000111 .
b00000000000000111 &
b0000000000000111 '
1+
b0000000000000111 )
#786
0+
#791
b0000000000000111 !
b0000000000001000 -
b0000000000001000 .
b00000000000001000 &
b0000000000001000 '
1+
b0000000000001000 )
#796
0+
#801
b0000000000001000 !
b0000000000000000 -
b0000000000001001 .
b00000000000001001 &
b0000000000001001 '
1+
b0000000000000000 )
#806
0+
#811
b0000000000000000 !
b0000000000000001 -
b0000000000000001 .
b00000000000000001 &
b0000000000000001 '
1+
b0000000000000001 )
#816
0+
#821
b0000000000000001 !
b0000000000000010 -
b0000000000000010 .
b00000000000000010 &
b0000000000000010 '
1+
b0000000000000010 )
#826
0+
#831
b0000000000000010 !
b0000000000000011 -
b0000000000000011 .
b00000000000000011 &
b0000000000000011 '
1+
b0000000000000011 )
#836
0+
#841
b0000000000000011 !
b0000000000000100 -
b0000000000000100 .
b00000000000000100 &
b0000000000000100 '
1+
b0000000000000100 )
#846
0+
#851
b0000000000000100 !
b0000000000000101 -
b0000000000000101 .
b00000000000000101 &
b0000000000000101 '
1+
b0000000000000101 )
#856
0+
#861
b0000000000000101 !
b0000000000000110 -
b0000000000000110 .
b00000000000000110 &
b0000000000000110 '
1+
b0000000000000110 )
#866
0+
#871
b0000000000000110 !
b0000000000000111 -
b0000000000000111 .
b00000000000000111 &
b0000000000000111 '
1+
b0000000000000111 )
#876
0+
#881
b0000000000000111 !
b0000000000001000 -
b0000000000001000 .
b00000000000001000 &
b0000000000001000 '
1+
b0000000000001000 )
#886
0+
#891
b0000000000001000 !
b0000000000000000 -
b0000000000001001 .
b00000000000001001 &
b0000000000001001 '
1+
b0000000000000000 )
#896
0+
#901
b0000000000000000 !
b0000000000000001 -
b0000000000000001 .
b00000000000000001 &
b0000000000000001 '
1+
b0000000000000001 )
#906
0+
#911
b0000000000000001 !
b0000000000000010 -
b0000000000000010 .
b00000000000000010 &
b0000000000000010 '
1+
b0000000000000010 )
#916
0+
#921
b0000000000000010 !
b0000000000000011 -
b0000000000000011 .
b00000000000000011 &
b0000000000000011 '
1+
b0000000000000011 )
#926
0+
#931
b0000000000000011 !
b0000000000000100 -
b0000000000000100 .
b00000000000000100 &
b0000000000000100 '
1+
b0000000000000100 )
#936
0+
#941
b0000000000000100 !
b0000000000000101 -
b0000000000000101 .
b00000000000000101 &
b0000000000000101 '
1+
b0000000000000101 )
#946
0+
#951
b0000000000000101 !
b0000000000000110 -
b0000000000000110 .
b00000000000000110 &
b0000000000000110 '
1+
b0000000000000110 )
#956
0+
#961
b0000000000000110 !
b0000000000000111 -
b0000000000000111 .
b00000000000000111 &
b0000000000000111 '
1+
b0000000000000111 )
#966
0+
#971
b0000000000000111 !
b0000000000001000 -
b0000000000001000 .
b00000000000001000 &
b0000000000001000 '
1+
b0000000000001000 )
#976
0+
#981
b0000000000001000 !
b0000000000000000 -
b0000000000001001 .
b00000000000001001 &
b0000000000001001 '
1+
b0000000000000000 )
#986
0+
#991
b0000000000000000 !
b0000000000000001 -
b0000000000000001 .
b00000000000000001 &
b0000000000000001 '
1+
b0000000000000001 )
#996
0+
#1001
b0000000000000001 !
b0000000000000010 -
b0000000000000010 .
b00000000000000010 &
b0000000000000010 '
1+
b0000000000000010 )
#1006
0+
#1011
b0000000000000010 !
b0000000000000011 -
b0000000000000011 .
b00000000000000011 &
b0000000000000011 '
1+
b0000000000000011 )
#1016
0+
#1021
b0000000000000011 !
b0000000000000100 -
b0000000000000100 .
b00000000000000100 &
b0000000000000100 '
1+
b0000000000000100 )
#1026
0+
#1031
b0000000000000100 !
b0000000000000101 -
b0000000000000101 .
b00000000000000101 &
b0000000000000101 '
1+
b0000000000000101 )
#1036
0+
#1041
b0000000000000101 !
b0000000000000110 -
b0000000000000110 .
b00000000000000110 &
b0000000000000110 '
1+
b0000000000000110 )
#1046
0+
#1051
b0000000000000110 !
b0000000000000111 -
b0000000000000111 .
b00000000000000111 &
b0000000000000111 '
1+
b0000000000000111 )
#1056
0+
#1061
b0000000000000111 !
b0000000000001000 -
b0000000000001000 .
b00000000000001000 &
b0000000000001000 '
1+
b0000000000001000 )
#1066
0+
#1071
b0000000000001000 !
b0000000000000000 -
b0000000000001001 .
b00000000000001001 &
b0000000000001001 '
1+
b0000000000000000 )
#1076
0+
#1081
b0000000000000000 !
b0000000000000001 -
b0000000000000001 .
b00000000000000001 &
b0000000000000001 '
1+
b0000000000000001 )
#1086
0+
#1091
b0000000000000001 !
b0000000000000010 -
b0000000000000010 .
b00000000000000010 &
b0000000000000010 '
1+
b0000000000000010 )
#1096
0+
#1101
b0000000000000010 !
b0000000000000011 -
b0000000000000011 .
b00000000000000011 &
b0000000000000011 '
1+
b0000000000000011 )
#1106
0+
#1111
b0000000000000011 !
b0000000000000100 -
b0000000000000100 .
b00000000000000100 &
b0000000000000100 '
1+
b0000000000000100 )
#1116
0+
#1121
b0000000000000100 !
b0000000000000101 -
b0000000000000101 .
b00000000000000101 &
b0000000000000101 '
1+
b0000000000000101 )
#1126
0+
#1131
b0000000000000101 !
b0000000000000110 -
b0000000000000110 .
b00000000000000110 &
b0000000000000110 '
1+
b0000000000000110 )
#1136
0+
#1141
b0000000000000110 !
b0000000000000111 -
b0000000000000111 .
b00000000000000111 &
b0000000000000111 '
1+
b0000000000000111 )
#1146
0+
#1151
b0000000000000111 !
b0000000000001000 -
b0000000000001000 .
b00000000000001000 &
b0000000000001000 '
1+
b0000000000001000 )
#1156
0+
#1161
b0000000000001000 !
b0000000000000000 -
b0000000000001001 .
b00000000000001001 &
b0000000000001001 '
1+
b0000000000000000 )
#1166
0+
#1171
b0000000000000000 !
b0000000000000001 -
b0000000000000001 .
b00000000000000001 &
b0000000000000001 '
1+
b0000000000000001 )
#1176
0+
#1181
b0000000000000001 !
b0000000000000010 -
b0000000000000010 .
b00000000000000010 &
b0000000000000010 '
1+
b0000000000000010 )
#1186
0+
#1191
b0000000000000010 !
b0000000000000011 -
b0000000000000011 .
b00000000000000011 &
b0000000000000011 '
1+
b0000000000000011 )
#1196
0+
#1201
b0000000000000011 !
b0000000000000100 -
b0000000000000100 .
b00000000000000100 &
b0000000000000100 '
1+
b0000000000000100 )
#1206
0+
#1211
b0000000000000100 !
b0000000000000101 -
b0000000000000101 .
b00000000000000101 &
b0000000000000101 '
1+
b0000000000000101 )
#1216
0+
#1221
b0000000000000101 !
b0000000000000110 -
b0000000000000110 .
b00000000000000110 &
b0000000000000110 '
1+
b0000000000000110 )
#1226
0+
#1231
b0000000000000110 !
b0000000000000111 -
b0000000000000111 .
b00000000000000111 &
b0000000000000111 '
1+
b0000000000000111 )
#1236
0+
#1241
b0000000000000111 !
b0000000000001000 -
b0000000000001000 .
b00000000000001000 &
b0000000000001000 '
1+
b0000000000001000 )
#1246
0+
#1251
b0000000000001000 !
b0000000000000000 -
b0000000000001001 .
b00000000000001001 &
b0000000000001001 '
1+
b0000000000000000 )
#1256
0+
#1261
b0000000000000000 !
b0000000000000001 -
b0000000000000001 .
b00000000000000001 &
b0000000000000001 '
1+
b0000000000000001 )
#1266
0+
#1271
b0000000000000001 !
b0000000000000010 -
b0000000000000010 .
b00000000000000010 &
b0000000000000010 '
1+
b0000000000000010 )
#1276
0+
#1281
b0000000000000010 !
b0000000000000011 -
b0000000000000011 .
b00000000000000011 &
b0000000000000011 '
1+
b0000000000000011 )
#1286
0+
#1291
b0000000000000011 !
b0000000000000100 -
b0000000000000100 .
b00000000000000100 &
b0000000000000100 '
1+
b0000000000000100 )
#1296
0+
#1301
b0000000000000100 !
b0000000000000101 -
b0000000000000101 .
b00000000000000101 &
b0000000000000101 '
1+
b0000000000000101 )
#1306
0+
#1311
b0000000000000101 !
b0000000000000110 -
b0000000000000110 .
b00000000000000110 &
b0000000000000110 '
1+
b0000000000000110 )
#1316
0+
#1321
b0000000000000110 !
b0000000000000111 -
b0000000000000111 .
b00000000000000111 &
b0000000000000111 '
1+
b0000000000000111 )
#1326
0+
#1331
b0000000000000111 !
b0000000000001000 -
b0000000000001000 .
b00000000000001000 &
b0000000000001000 '
1+
b0000000000001000 )
#1336
0+
#1341
b0000000000001000 !
b0000000000000000 -
b0000000000001001 .
b00000000000001001 &
b0000000000001001 '
1+
b0000000000000000 )
#1346
0+
#1351
b0000000000000000 !
b0000000000000001 -
b0000000000000001 .
b00000000000000001 &
b0000000000000001 '
1+
b0000000000000001 )
#1356
0+
#1361
b0000000000000001 !
b0000000000000010 -
b0000000000000010 .
b00000000000000010 &
b0000000000000010 '
1+
b0000000000000010 )
#1366
0+
#1371
b0000000000000010 !
b0000000000000011 -
b0000000000000011 .
b00000000000000011 &
b0000000000000011 '
1+
b0000000000000011 )
#1376
0+
#1381
b0000000000000011 !
b0000000000000100 -
b0000000000000100 .
b00000000000000100 &
b0000000000000100 '
1+
b0000000000000100 )
#1386
0+
#1391
b0000000000000100 !
b0000000000000101 -
b0000000000000101 .
b00000000000000101 &
b0000000000000101 '
1+
b0000000000000101 )
#1396
0+
#1401
b0000000000000101 !
b0000000000000110 -
b0000000000000110 .
b00000000000000110 &
b0000000000000110 '
1+
b0000000000000110 )
#1406
0+
#1411
b0000000000000110 !
b0000000000000111 -
b0000000000000111 .
b00000000000000111 &
b0000000000000111 '
1+
b0000000000000111 )
#1416
0+
#1421
b0000000000000111 !
b0000000000001000 -
b0000000000001000 .
b00000000000001000 &
b0000000000001000 '
1+
b0000000000001000 )
#1426
0+
#1431
b0000000000001000 !
b0000000000000000 -
b0000000000001001 .
b00000000000001001 &
b0000000000001001 '
1+
b0000000000000000 )
#1436
0+
#1441
b0000000000000000 !
b0000000000000001 -
b0000000000000001 .
b00000000000000001 &
b0000000000000001 '
1+
b0000000000000001 )
#1446
0+
#1451
b0000000000000001 !
b0000000000000010 -
b0000000000000010 .
b00000000000000010 &
b0000000000000010 '
1+
b0000000000000010 )
#1456
0+
#1461
b0000000000000010 !
b0000000000000011 -
b0000000000000011 .
b00000000000000011 &
b0000000000000011 '
1+
b0000000000000011 )
#1466
0+
#1471
b0000000000000011 !
b0000000000000100 -
b0000000000000100 .
b00000000000000100 &
b0000000000000100 '
1+
b0000000000000100 )
#1476
0+
#1481
b0000000000000100 !
b0000000000000101 -
b0000000000000101 .
b00000000000000101 &
b0000000000000101 '
1+
b0000000000000101 )
#1486
0+
#1491
b0000000000000101 !
b0000000000000110 -
b0000000000000110 .
b00000000000000110 &
b0000000000000110 '
1+
b0000000000000110 )
#1496
0+
#1501
b0000000000000110 !
b0000000000000111 -
b0000000000000111 .
b00000000000000111 &
b0000000000000111 '
1+
b0000000000000111 )
#1506
0+
#1511
b0000000000000111 !
b0000000000001000 -
b0000000000001000 .
b00000000000001000 &
b0000000000001000 '
1+
b0000000000001000 )
#1516
0+
#1521
b0000000000001000 !
b0000000000000000 -
b0000000000001001 .
b00000000000001001 &
b0000000000001001 '
1+
b0000000000000000 )
#1526
0+
#1531
b0000000000000000 !
b0000000000000001 -
b0000000000000001 .
b00000000000000001 &
b0000000000000001 '
1+
b0000000000000001 )
#1536
0+
#1541
b0000000000000001 !
b0000000000000010 -
b0000000000000010 .
b00000000000000010 &
b0000000000000010 '
1+
b0000000000000010 )
#1546
0+
#1551
b0000000000000010 !
b0000000000000011 -
b0000000000000011 .
b00000000000000011 &
b0000000000000011 '
1+
b0000000000000011 )
#1556
0+
#1561
b0000000000000011 !
b0000000000000100 -
b0000000000000100 .
b00000000000000100 &
b0000000000000100 '
1+
b0000000000000100 )
#1566
0+
#1571
b0000000000000100 !
b0000000000000101 -
b0000000000000101 .
b00000000000000101 &
b0000000000000101 '
1+
b0000000000000101 )
#1576
0+
#1581
b0000000000000101 !
b0000000000000110 -
b0000000000000110 .
b00000000000000110 &
b0000000000000110 '
1+
b0000000000000110 )
#1586
0+
#1591
b0000000000000110 !
b0000000000000111 -
b0000000000000111 .
b00000000000000111 &
b0000000000000111 '
1+
b0000000000000111 )
#1596
0+
#1601
b0000000000000111 !
b0000000000001000 -
b0000000000001000 .
b00000000000001000 &
b0000000000001000 '
1+
b0000000000001000 )
#1606
0+
#1611
b0000000000001000 !
b0000000000000000 -
b0000000000001001 .
b00000000000001001 &
b0000000000001001 '
1+
b0000000000000000 )
#1616
0+
#1621
b0000000000000000 !
b0000000000000001 -
b0000000000000001 .
b00000000000000001 &
b0000000000000001 '
1+
b0000000000000001 )
#1626
0+
#1631
b0000000000000001 !
b0000000000000010 -
b0000000000000010 .
b00000000000000010 &
b0000000000000010 '
1+
b0000000000000010 )
#1636
0+
#1641
b0000000000000010 !
b0000000000000011 -
b0000000000000011 .
b00000000000000011 &
b0000000000000011 '
1+
b0000000000000011 )
#1646
0+
#1651
b0000000000000011 !
b0000000000000100 -
b0000000000000100 .
b00000000000000100 &
b0000000000000100 '
1+
b0000000000000100 )
#1656
0+
#1661
b0000000000000100 !
b0000000000000101 -
b0000000000000101 .
b00000000000000101 &
b0000000000000101 '
1+
b0000000000000101 )
#1666
0+
#1671
b0000000000000101 !
b0000000000000110 -
b0000000000000110 .
b00000000000000110 &
b0000000000000110 '
1+
b0000000000000110 )
#1676
0+
#1681
b0000000000000110 !
b0000000000000111 -
b0000000000000111 .
b00000000000000111 &
b0000000000000111 '
1+
b0000000000000111 )
#1686
0+
#1691
b0000000000000111 !
b0000000000001000 -
b0000000000001000 .
b00000000000001000 &
b0000000000001000 '
1+
b0000000000001000 )
#1696
0+
#1701
b0000000000001000 !
b0000000000000000 -
b0000000000001001 .
b00000000000001001 &
b0000000000001001 '
1+
b0000000000000000 )
#1706
0+
#1711
b0000000000000000 !
b0000000000000001 -
b0000000000000001 .
b00000000000000001 &
b0000000000000001 '
1+
b0000000000000001 )
#1716
0+
#1721
b0000000000000001 !
b0000000000000010 -
b0000000000000010 .
b00000000000000010 &
b0000000000000010 '
1+
b0000000000000010 )
#1726
0+
#1731
b0000000000000010 !
b0000000000000011 -
b0000000000000011 .
b00000000000000011 &
b0000000000000011 '
1+
b0000000000000011 )
#1736
0+
#1741
b0000000000000011 !
b0000000000000100 -
b0000000000000100 .
b00000000000000100 &
b0000000000000100 '
1+
b0000000000000100 )
#1746
0+
#1751
b0000000000000100 !
b0000000000000101 -
b0000000000000101 .
b00000000000000101 &
b0000000000000101 '
1+
b0000000000000101 )
#1756
0+
#1761
b0000000000000101 !
b0000000000000110 -
b0000000000000110 .
b00000000000000110 &
b0000000000000110 '
1+
b0000000000000110 )
#1766
0+
#1771
b0000000000000110 !
b0000000000000111 -
b0000000000000111 .
b00000000000000111 &
b0000000000000111 '
1+
b0000000000000111 )
#1776
0+
#1781
b0000000000000111 !
b0000000000001000 -
b0000000000001000 .
b00000000000001000 &
b0000000000001000 '
1+
b0000000000001000 )
#1786
0+
#1791
b0000000000001000 !
b0000000000000000 -
b0000000000001001 .
b00000000000001001 &
b0000000000001001 '
1+
b0000000000000000 )
#1796
0+
#1801
b0000000000000000 !
b0000000000000001 -
b0000000000000001 .
b00000000000000001 &
b0000000000000001 '
1+
b0000000000000001 )
#1806
0+
#1811
b0000000000000001 !
b0000000000000010 -
b0000000000000010 .
b00000000000000010 &
b0000000000000010 '
1+
b0000000000000010 )
#1816
0+
#1821
b0000000000000010 !
b0000000000000011 -
b0000000000000011 .
b00000000000000011 &
b0000000000000011 '
1+
b0000000000000011 )
#1826
0+
#1831
b0000000000000011 !
b0000000000000100 -
b0000000000000100 .
b00000000000000100 &
b0000000000000100 '
1+
b0000000000000100 )
#1836
0+
#1841
b0000000000000100 !
b0000000000000101 -
b0000000000000101 .
b00000000000000101 &
b0000000000000101 '
1+
b0000000000000101 )
#1846
0+
#1851
b0000000000000101 !
b0000000000000110 -
b0000000000000110 .
b00000000000000110 &
b0000000000000110 '
1+
b0000000000000110 )
#1856
0+
#1861
b0000000000000110 !
b0000000000000111 -
b0000000000000111 .
b00000000000000111 &
b0000000000000111 '
1+
b0000000000000111 )
#1866
0+
#1871
b0000000000000111 !
b0000000000001000 -
b0000000000001000 .
b00000000000001000 &
b0000000000001000 '
1+
b0000000000001000 )
#1876
0+
#1881
b0000000000001000 !
b0000000000000000 -
b0000000000001001 .
b00000000000001001 &
b0000000000001001 '
1+
b0000000000000000 )
#1886
0+
#1891
b0000000000000000 !
b0000000000000001 -
b0000000000000001 .
b00000000000000001 &
b0000000000000001 '
1+
b0000000000000001 )
#1896
0+
#1901
b0000000000000001 !
b0000000000000010 -
b0000000000000010 .
b00000000000000010 &
b0000000000000010 '
1+
b0000000000000010 )
#1906
0+
#1911
b0000000000000010 !
b0000000000000011 -
b0000000000000011 .
b00000000000000011 &
b0000000000000011 '
1+
b0000000000000011 )
#1916
0+
#1921
b0000000000000011 !
b0000000000000100 -
b0000000000000100 .
b00000000000000100 &
b0000000000000100 '
1+
b0000000000000100 )
#1926
0+
#1931
b0000000000000100 !
b0000000000000101 -
b0000000000000101 .
b00000000000000101 &
b0000000000000101 '
1+
b0000000000000101 )
#1936
0+
#1941
b0000000000000101 !
b0000000000000110 -
b0000000000000110 .
b00000000000000110 &
b0000000000000110 '
1+
b0000000000000110 )
#1946
0+
#1951
b0000000000000110 !
b0000000000000111 -
b0000000000000111 .
b00000000000000111 &
b0000000000000111 '
1+
b0000000000000111 )
#1956
0+
#1961
b0000000000000111 !
b0000000000001000 -
b0000000000001000 .
b00000000000001000 &
b0000000000001000 '
1+
b0000000000001000 )
#1966
0+
#1971
b0000000000001000 !
b0000000000000000 -
b0000000000001001 .
b00000000000001001 &
b0000000000001001 '
1+
b0000000000000000 )
#1976
0+
