test_run_dir/Test4/Task1_Lab4.vcd
$date
2021-04-01T09:17+0000
$end
$version
0.2
$end
$comment

$end
$timescale 1ns  $end
$scope module Task1_Lab4 $end
 $var wire 32 ! io_arg_y $end
 $var wire 1 " _GEN_2 $end
 $var wire 1 # io_branch $end
 $var wire 32 $ io_arg_x $end
 $var wire 3 % io_fnct3 $end
 $var wire 1 & _GEN_1 $end
 $var wire 1 ' clock $end
 $var wire 1 ( reset $end
 $var wire 1 ) _GEN_3 $end
 $var wire 1 * io_br_taken $end
$upscope $end
$enddefinitions $end
$dumpvars
0"
0)
0&
0#
0*
0'
b000 %
b00000000000000000000000000000000 $
b00000000000000000000000000000000 !
0(
$end
#0
1(
1)
#1
1'
#6
b01010111111101101100101100000111 !
1#
0'
b00100111100100010110011111101001 $
0(
0)
#11
1'
#16
b11001010101010101000111011100001 !
b001 %
1"
1*
0'
b00000011101101111101100111111001 $
1)
#21
1'
#26
b00101010100110001111101010111100 !
0#
0*
0'
b10011101110011111011000110111011 $
#31
1'
#36
b11001000001110110110001110000111 !
b110 %
1&
1#
1*
0'
b10111110001100000000111110101000 $
#41
1'
#46
b01000010001100010111001100011011 !
b000 %
0"
0&
0#
0*
0'
b10001110010000001010010000000010 $
0)
#51
1'
#56
b11011000111110010111110110011011 !
b001 %
1"
1#
1*
0'
b11100001011010000111010000101010 $
1)
#61
1'
#66
b10011100111101110100011011000011 !
b110 %
0"
0#
0*
0'
b11110111111011010101100001000010 $
0)
#71
1'
#76
b11010000100001001101111110101100 !
b101 %
0"
0&
1#
0'
b00100000111111110101011011001011 $
0)
#81
1'
#86
b00000010101100101100000110100010 !
b000 %
0"
0&
0*
0'
b10010001100010101001011001000011 $
0)
#91
1'
#96
b10100010110000111110010100011011 !
0'
b01011111000001111001110011101100 $
#101
1'
#106
b11100110000101110101110000000001 !
b001 %
1"
0#
0*
0'
b00110100101000001001010101000001 $
1)
#111
1'
#116
b00100100010110010111110010111111 !
b101 %
1&
1#
1*
0'
b01011110010000110101100111001101 $
#121
1'
#126
b01100111000101001111111111010011 !
b100 %
0"
0&
0#
0*
0'
b10001110101110101011010101010101 $
0)
#131
1'
#136
b01100110100100100010001111011000 !
1"
1&
1#
1*
0'
b01001111010100001001110010011100 $
1)
#141
1'
#146
b10010101010101000000110000111111 !
b101 %
0"
0&
0#
0*
0'
b00000001110100011011110100100100 $
0)
#151
1'
#156
b01011111001111111010110100110110 !
b110 %
0"
0&
0'
b11110000010001101010000010111101 $
0)
#161
1'
#166
b01010011011100111100001101101100 !
b000 %
0"
0&
1#
0'
b00001000010111010110011111000110 $
0)
#171
1'
#176
b11001101001111100010000010101010 !
b101 %
0#
0'
b10000001101010011100110001011100 $
#181
1'
#186
b00110011110100110000111010001100 !
b100 %
0"
0&
0'
b01001011101000000100111011111001 $
0)
#191
1'
#196
b01101011000010100011111010101110 !
b000 %
0"
0&
0'
b00110110100100010010100100110001 $
0)
#201
1'
#206
b01011100111001111100010000101100 !
b101 %
1"
1&
1#
1*
0'
b01110000000100110111110110000111 $
1)
#211
1'
#216
b01010110001011000111010001010000 !
b110 %
1"
1&
0#
0*
0'
b00101010100110000100001110010100 $
1)
#221
1'
#226
b00100111101100001101110010111010 !
b100 %
0"
0&
1#
0'
b01000100100101010011010111110101 $
0)
#231
1'
#236
b10111100100000010100101101100101 !
b110 %
1"
1&
0#
0*
0'
b01100101000001001001101111000001 $
1)
#241
1'
#246
b01011100111001000100000101010111 !
b100 %
0"
0&
1#
0'
b11100001011010001011100101101110 $
0)
#251
1'
#256
b00001011110110101010001011101011 !
b110 %
0"
0&
0#
0*
0'
b01000111100111100001010101101101 $
0)
#261
1'
#266
b11111111010110010010000011100000 !
b101 %
0"
0&
0'
b10001100011010110001101011101111 $
0)
#271
1'
#276
b00000101010100110011101110111110 !
1"
1&
0'
b10100111010111100001000110001001 $
1)
#281
1'
#286
b10101010000110111111011100111000 !
0"
0&
1#
0'
b00100100011000110110101010110100 $
0)
#291
1'
#296
b10111000001110000110010110000000 !
b100 %
1"
1&
1*
0'
b00001111100010010001111001010110 $
1)
#301
1'
#306
b00010000110100011011001011010111 !
b001 %
1"
0&
1*
0'
b11101110010000101100010111100010 $
1)
#311
1'
#316
b11011000111000111101011111000010 !
b101 %
0"
0*
0'
b10011011010000110110100110101010 $
0)
#321
1'
#326
b11110111110100111010010010011000 !
b100 %
0"
0&
0*
0'
b11111000110000110001011001110101 $
0)
#331
1'
#336
b10000010100000100000001101111000 !
b101 %
1"
1&
1*
0'
b11011000011110000110000110000001 $
1)
#341
1'
#346
b01111000111111100010010111000000 !
b000 %
0"
0&
0#
0*
0'
b11000101010110011000111101101101 $
0)
#351
1'
#356
b11011111110011110110100010011100 !
1#
0'
b00100111010000100010111011000111 $
#361
1'
#366
b00001000110010000010000001001010 !
0#
0'
b01101101001001000011000100110101 $
#371
1'
#376
b10101010100100011011110000100000 !
1#
0'
b10001101000111011111011001100101 $
#381
1'
#386
b11111111001000011110010101111010 !
b100 %
1"
1&
0#
0*
0'
b01000101100101111110001001010100 $
1)
#391
1'
#396
b11101100001101111110101000011010 !
b000 %
0"
0&
0'
b01110001011001100000110010001010 $
0)
#401
1'
#406
b01100111000011011111111010100010 !
1#
0'
b11011111011111101110100001010111 $
#411
1'
#416
b11110111110111100100000000101011 !
b110 %
1"
1&
1*
0'
b11010011000000111000011000111100 $
1)
#421
1'
#426
b00110001001001101110010000101110 !
b101 %
1"
1&
0#
0*
0'
b10101011100011011100110011111110 $
1)
#431
1'
#436
b10001111001100100100110000110001 !
b001 %
1"
0&
0'
b01001100010011001101010100011111 $
1)
#441
1'
#446
b00101110100100001100011011110111 !
b100 %
0"
0'
b00110110101101101111101110100110 $
0)
#451
1'
#456
b01101100100111000011101100101101 !
b110 %
1"
1&
0'
b01100011110101110101100110000100 $
1)
#461
1'
#466
b00110101011011101101011111000110 !
b000 %
0"
0&
0'
b10110101101100111010001011110111 $
0)
#471
1'
#476
b10110101111010011100010001110111 !
b001 %
1"
0'
b11011101110111100001011010110101 $
1)
#481
1'
#486
b10101100000101111011100100100110 !
b000 %
0"
0'
b11101111001100101010011011001111 $
0)
#491
1'
#496
b11011111101110001110110100100001 !
0'
b11010100000001111111010110000000 $
#501
1'
#506
b01001111001101010000011101101111 !
b001 %
1"
1#
1*
0'
b10111111000001001010111001101110 $
1)
#511
1'
#516
b01010011010011110010111110101000 !
b101 %
1&
0#
0*
0'
b10000111000011000100000100000010 $
#521
1'
#526
b00011110111101100010001100010000 !
b000 %
0"
0&
1#
0'
b10110110101011101001101011100010 $
0)
#531
1'
#536
b01001010101000111101001111100010 !
b110 %
1"
1&
1*
0'
b00010001001101000100100110110110 $
1)
#541
1'
#546
b11101010110001101010100100011100 !
b100 %
1"
1&
0#
0*
0'
b01100001010010011111000110110110 $
1)
#551
1'
#556
b00110001011010101000001100100100 !
b001 %
0&
0'
b00110000010001010101101010111110 $
#561
1'
#566
b01001111110011010100011000011000 !
b110 %
0"
0'
b10001101110001010000011111010110 $
0)
#571
1'
#576
b11011010000111010110010010110011 !
b001 %
1"
0&
0'
b01001011001101100110110101110000 $
1)
#581
1'
#586
b00110111000101111100111100000100 !
b110 %
0"
1#
0'
b10101011101010101111100011000110 $
0)
#591
1'
#596
b10110011101001000100111001101110 !
b000 %
0"
0&
0#
0*
0'
b00010010011110010100011100100100 $
0)
#601
1'
#606
b11101011000001011100110010101000 !
1#
0'
b10110111110111011011011000000101 $
#611
1'
#616
b00101011100000001101010110111001 !
b001 %
1"
1*
0'
b10111010110011101110110100111101 $
1)
#621
1'
#626
b11011010011110101110010100100001 !
0'
b10111000010110101011101010111011 $
#631
1'
#636
b10011001100111010100110010101101 !
b100 %
0"
0#
0*
0'
b11100000110110111001101101110111 $
0)
#641
1'
#646
b10100001111001101100111110101100 !
b000 %
0"
0&
1#
0'
b00101100011111010010111110101010 $
0)
#651
1'
#656
b10010010001111101111011101111110 !
0#
0'
b11010001001101101010100001110000 $
#661
1'
#666
b00110000100000001011111010110001 !
0'
b11000010011101101000101101010011 $
#671
1'
#676
b10110000011010100000011000101100 !
b100 %
0'
b11011011110001110000010001111001 $
#681
1'
#686
b00000001011100000110110000010011 !
b101 %
1"
1&
0'
b10111111001010001111101001101000 $
1)
#691
1'
#696
b11001011100000000001111001101110 !
b000 %
0"
0&
0'
b11001100000111010011111010011110 $
0)
#701
1'
#706
b10110111010001110011001110110111 !
b001 %
1"
0'
b11001011011011010001110001110010 $
1)
#711
1'
#716
b11010110010010001000000111011100 !
b110 %
1&
0'
b11010001011010000011101111110100 $
#721
1'
#726
b10110010010111111110100001010011 !
0"
0&
0'
b11001101010101101110000011000100 $
0)
#731
1'
#736
b00101000001000110001110001011011 !
b000 %
0"
0&
0'
b01110001110110100000110100100010 $
0)
#741
1'
#746
b11100010101111000100111001111010 !
b101 %
1#
0'
b01100101100000111000111110011111 $
#751
1'
#756
b11000011001001100000011011001110 !
b001 %
1"
1*
0'
b01100101000101101000111000110011 $
1)
#761
1'
#766
b01110010000000110110100111100100 !
0'
b11110100000111010100101110100111 $
#771
1'
#776
b11101111100011110100100111111011 !
b101 %
0"
0#
0*
0'
b11011001110101011011110010011011 $
0)
#781
1'
#786
b01110100100111000000100100000010 !
b001 %
1"
0'
b01010111010011101001011110000110 $
1)
#791
1'
#796
b10101110100010101110110110111100 !
b101 %
0"
0'
b00100010011111111110111110000111 $
0)
#801
1'
#806
b10000111110000110011101011000010 !
1#
0'
b00011001100110101010101111011111 $
#811
1'
#816
b10010000000011111010000001100111 !
1"
1&
1*
0'
b10011101011100100101111001101010 $
1)
#821
1'
#826
b10111000001011101001101010100000 !
0"
0&
0*
0'
b10000010001101011010100101110110 $
0)
#831
1'
#836
b00101001110000101000001001111111 !
b100 %
0"
0&
0*
0'
b11100110000011101010000111000101 $
0)
#841
1'
#846
b11000111100001101001111011101110 !
b001 %
1"
1*
0'
b11111000010010011111001110011101 $
1)
#851
1'
#856
b00011011101011001110001010011100 !
b101 %
1&
0'
b10011101111110000001101000110110 $
#861
1'
#866
b10011001000011010101010101100100 !
b001 %
0&
0#
0*
0'
b11000100010101100011111011100010 $
#871
1'
#876
b01011011010101001111010110011000 !
b101 %
0"
1#
0'
b00000000001011100110100111000100 $
0)
#881
1'
#886
b01010101010110100011100111101011 !
b100 %
1"
1&
0#
0*
0'
b01010100101110100001111111110111 $
1)
#891
1'
#896
b10010010101111001101011011111100 !
b001 %
1"
0&
0'
b10110100010011000110101101101010 $
1)
#901
1'
#906
b01111100011101000001001110100111 !
b000 %
0"
0'
b01110100010111010010011011100010 $
0)
#911
1'
#916
b00110111001010010101110110101010 !
0'
b00101101010101110101010011100010 $
#921
1'
#926
b01011010111111100000010001000011 !
b101 %
0'
b00011000010111101101001001100110 $
#931
1'
#936
b10010111100111001001000011001011 !
b000 %
1#
0'
b00011111011110011110111010110011 $
#941
1'
#946
b00001100111001010011010110000001 !
b110 %
0#
0'
b10010100001010111110011110110001 $
#951
1'
#956
b01010100111001011100100011111100 !
b101 %
0"
0&
0'
b00001001000001000000111001111110 $
0)
#961
1'
#966
b10110100010000001101000100000001 !
b100 %
0"
0&
0'
b10110110011011111111101001000111 $
0)
#971
1'
#976
b01011001010010111100100110110100 !
b101 %
1"
1&
0'
b01011111010011101011111110000101 $
1)
#981
1'
#986
b11001000001001100010111001010010 !
1#
1*
0'
b11101101011000000011000000101110 $
#991
1'
#996
b10100100011000110101111011111001 !
b100 %
1"
1&
1*
0'
b00000101111110011100010101111101 $
1)
#1001
1'
#1006
b00000000000000000000000000000000 !
b000 %
0"
0&
0#
0*
0'
b00000000000000000000000000000000 $
