test_run_dir/Test7/Task1_Lab7.vcd
$date
2021-04-09T14:49+0000
$end
$version
0.2
$end
$comment

$end
$timescale 1ns  $end
$scope module Task1_Lab7 $end
 $var wire 1 ! io_out $end
 $var wire 2 " _GEN_2 $end
 $var wire 1 # _T $end
 $var wire 2 $ _GEN_5 $end
 $var wire 2 % state $end
 $var wire 2 & _GEN_1 $end
 $var wire 2 ' _GEN_4 $end
 $var wire 1 ( clock $end
 $var wire 2 ) _GEN_0 $end
 $var wire 1 * io_in $end
 $var wire 1 + _io_out_T $end
 $var wire 1 , reset $end
 $var wire 2 - _GEN_3 $end
$upscope $end
$enddefinitions $end
$dumpvars
b00 &
0#
b00 '
b00 $
0*
b00 %
0+
b00 )
0,
b00 -
0!
b00 "
0(
$end
#0
b10 &
1#
1+
1,
#1
1(
#6
1!
b00 &
1*
b01 $
0(
0,
b01 )
#11
0!
b01 -
b01 %
b01 "
0#
b00 $
0+
1(
#16
0(
#21
1!
b00 -
b00 %
b00 "
1#
b01 $
1+
1(
#26
0(
#31
0!
b01 -
b01 %
b01 "
0#
b00 $
0+
1(
#36
0(
#41
1!
b00 -
b00 %
b00 "
1#
b01 $
1+
1(
#46
0(
#51
0!
b01 -
b01 %
b01 "
0#
b00 $
0+
1(
#56
0(
#61
1!
b00 -
b00 %
b00 "
1#
b01 $
1+
1(
#66
0(
#71
0!
b01 -
b01 %
b01 "
0#
b00 $
0+
1(
#76
0(
#81
1!
b00 -
b00 %
b00 "
1#
b01 $
1+
1(
#86
0(
#91
0!
b01 -
b01 %
b01 "
0#
b00 $
0+
1(
#96
0(
#101
1!
b00 -
b00 %
b00 "
1#
b01 $
1+
1(
#106
0(
#111
0!
b01 -
b01 %
b01 "
0#
b00 $
0+
1(
#116
0(
#121
1!
b00 -
b00 %
b00 "
1#
b01 $
1+
1(
#126
0(
#131
0!
b01 -
b01 %
b01 "
0#
b00 $
0+
1(
#136
0(
#141
1!
b00 -
b00 %
b00 "
1#
b01 $
1+
1(
#146
0(
#151
0!
b01 -
b01 %
b01 "
0#
b00 $
0+
1(
#156
0(
#161
1!
b00 -
b00 %
b00 "
1#
b01 $
1+
1(
#166
0(
#171
0!
b01 -
b01 %
b01 "
0#
b00 $
0+
1(
#176
0(
#181
1!
b00 -
b00 %
b00 "
1#
b01 $
1+
1(
#186
0(
#191
0!
b01 -
b01 %
b01 "
0#
b00 $
0+
1(
#196
0(
#201
1!
b00 -
b00 %
b00 "
1#
b01 $
1+
1(
#206
0!
b10 &
0*
b00 $
0(
b00 )
