test_run_dir/Test7/Task2_lab7.vcd
$date
2021-04-15T17:36+0000
$end
$version
0.2
$end
$comment

$end
$timescale 1ns  $end
$scope module Task2_lab7 $end
 $var wire 8 ! io_out $end
 $var wire 1 " _GEN_10 $end
 $var wire 1 # _T $end
 $var wire 8 $ _GEN_5 $end
 $var wire 9 % _GEN_8 $end
 $var wire 1 & _GEN_7 $end
 $var wire 1 ' io_start $end
 $var wire 8 ( _GEN_1 $end
 $var wire 9 ) _GEN_4 $end
 $var wire 1 * clock $end
 $var wire 1 + io_flag $end
 $var wire 9 , _state1_Reg_T $end
 $var wire 1 - state_Reg $end
 $var wire 1 . _GEN_11 $end
 $var wire 9 / _GEN_14 $end
 $var wire 9 0 _state1_Reg_T_1 $end
 $var wire 1 1 _GEN_6 $end
 $var wire 1 2 _GEN_0 $end
 $var wire 8 3 state1_Reg $end
 $var wire 8 4 _GEN_9 $end
 $var wire 1 5 io_in $end
 $var wire 1 6 reset $end
 $var wire 1 7 _GEN_3 $end
$upscope $end
$enddefinitions $end
$dumpvars
b00000000 (
0&
05
0-
b00000000 !
0'
b000000000 ,
0.
b000000000 %
06
b00000000 $
07
0"
01
0#
b00000000 3
0*
b000000000 /
b00000000 4
0+
b000000000 0
02
b000000000 )
$end
#0
1#
16
#1
1*
#6
11
1.
12
0*
1'
06
#11
1-
1"
1&
0#
1*
1+
b00000001 (
17
#16
b000000001 0
b000000001 %
15
0*
b000000001 /
b000000001 )
#21
b00000001 3
b000000011 0
b00000001 !
b000000011 %
b00000001 4
1*
b00000001 $
b000000011 /
b000000010 ,
b000000011 )
#26
0*
#31
b00000011 3
b000000111 0
b00000011 !
b000000111 %
b00000011 4
1*
b00000011 $
b000000111 /
b000000110 ,
b000000111 )
#36
b000000110 0
b000000110 %
05
0*
b000000110 /
b000000110 )
#41
b00000110 3
b000001100 0
b00000110 !
b000001100 %
b00000110 4
1*
b00000110 $
b000001100 /
b000001100 ,
b000001100 )
#46
b000001101 0
b000001101 %
15
0*
b000001101 /
b000001101 )
#51
b00001101 3
b000011011 0
b00001101 !
b000011011 %
b00001101 4
1*
b00001101 $
b000011011 /
b000011010 ,
b000011011 )
#56
b000001101 %
b00000001 4
0.
0&
05
0'
b00001101 (
07
b000001101 /
b000001101 )
b00000001 !
b000011010 0
0"
01
0*
b00000001 $
0+
#61
b00001101 !
0-
b00000000 4
1#
02
1*
b00000000 $
