test_run_dir/Test7/Task1_Lab7.vcd
$date
2021-04-09T16:50+0000
$end
$version
0.2
$end
$comment

$end
$timescale 1ns  $end
$scope module Task1_Lab7 $end
 $var wire 1 ! io_f2 $end
 $var wire 3 " _GEN_22 $end
 $var wire 3 # _GEN_16 $end
 $var wire 4 $ io_out $end
 $var wire 2 % _GEN_2 $end
 $var wire 2 & _GEN_10 $end
 $var wire 1 ' _T $end
 $var wire 3 ( _GEN_19 $end
 $var wire 3 ) _GEN_5 $end
 $var wire 3 * _GEN_13 $end
 $var wire 2 + _GEN_8 $end
 $var wire 2 , state $end
 $var wire 3 - _GEN_12 $end
 $var wire 2 . _GEN_15 $end
 $var wire 2 / _GEN_7 $end
 $var wire 1 0 io_f1 $end
 $var wire 3 1 _GEN_21 $end
 $var wire 3 2 _GEN_18 $end
 $var wire 3 3 _GEN_4 $end
 $var wire 1 4 clock $end
 $var wire 3 5 _GEN_23 $end
 $var wire 3 6 _GEN_17 $end
 $var wire 1 7 io_r2 $end
 $var wire 2 8 _GEN_11 $end
 $var wire 3 9 _GEN_20 $end
 $var wire 3 : _GEN_14 $end
 $var wire 2 ; _GEN_6 $end
 $var wire 3 < _GEN_0 $end
 $var wire 2 = _GEN_9 $end
 $var wire 1 > reset $end
 $var wire 3 ? _GEN_3 $end
 $var wire 1 @ io_r1 $end
$upscope $end
$enddefinitions $end
$dumpvars
b00 .
b000 1
b00 &
b000 2
b000 *
0'
b000 3
b00 =
0>
0!
b000 -
07
b0000 $
b00 %
b000 (
b00 ;
b000 )
b000 ?
04
b000 "
b000 #
b000 9
b000 :
b00 /
b00 8
00
b000 <
b000 5
b000 6
b00 +
0@
b00 ,
$end
#0
b10 8
b101 #
b100 *
b101 6
b01 +
b100 :
1>
#1
14
#6
b001 3
b01 %
04
b11 &
b001 5
b100 6
17
b10 /
0>
b001 )
1!
10
b001 ?
b11 8
b000 #
b000 *
b10 +
b011 :
#11
b001 -
14
b01 .
b010 5
b01 =
b001 (
b010 "
b001 1
b001 #
b001 2
b001 *
b001 9
b01 ,
b01 ;
#16
04
#21
b010 -
14
b10 .
b011 5
1'
b10 =
b010 (
b011 "
b011 1
b010 #
b010 2
b010 *
b010 9
b0011 $
b10 ,
b10 ;
#26
04
#31
b011 -
14
b11 .
b000 5
0'
b11 =
b011 (
b000 "
b000 1
b011 #
b011 2
b011 *
b000 9
b0000 $
b11 ,
b11 ;
#36
04
#41
b000 -
14
b00 .
b000 #
b000 2
b001 5
b000 *
b00 =
b000 (
b00 ,
b00 ;
#46
04
#51
b001 -
14
b01 .
b010 5
b01 =
b001 (
b010 "
b001 1
b001 #
b001 2
b001 *
b001 9
b01 ,
b01 ;
#56
04
#61
b010 -
14
b10 .
b011 5
1'
b10 =
b010 (
b011 "
b011 1
b010 #
b010 2
b010 *
b010 9
b0011 $
b10 ,
b10 ;
#66
04
#71
b011 -
14
b11 .
b000 5
0'
b11 =
b011 (
b000 "
b000 1
b011 #
b011 2
b011 *
b000 9
b0000 $
b11 ,
b11 ;
#76
04
#81
b000 -
14
b00 .
b000 #
b000 2
b001 5
b000 *
b00 =
b000 (
b00 ,
b00 ;
#86
04
#91
b001 -
14
b01 .
b010 5
b01 =
b001 (
b010 "
b001 1
b001 #
b001 2
b001 *
b001 9
b01 ,
b01 ;
#96
04
#101
b010 -
14
b10 .
b011 5
1'
b10 =
b010 (
b011 "
b011 1
b010 #
b010 2
b010 *
b010 9
b0011 $
b10 ,
b10 ;
#106
b010 3
b10 %
04
b10 &
b010 5
b101 6
07
b000 )
0!
00
b010 ?
b010 "
b010 1
b10 8
b101 #
b100 *
b01 +
b100 :
