test_run_dir/Test6/Exercise4_Lab6.vcd
$date
2021-04-08T08:29+0000
$end
$version
0.2
$end
$comment

$end
$timescale 1ns  $end
$scope module Exercise4_Lab6 $end
 $var wire 1 ( _T $end
 $var wire 1 + io_in_ready $end
 $var wire 1 1 io_out_ready $end
 $var wire 8 Q io_out_bits $end
 $var wire 1 X queue $end
 $var wire 1 [ clock $end
 $var wire 1 ^ io_in_valid $end
 $var wire 1 d io_out_valid $end
 $var wire 1 e queue_1 $end
 $var wire 8 u io_in_bits $end
 $var wire 1 v reset $end
  $scope module queue_1 $end
   $var wire 3 " _value_T_3 $end
   $var wire 3 # _GEN_7 $end
   $var wire 1 . ptr_match $end
   $var wire 1 4 io_enq_ready $end
   $var wire 1 7 do_deq $end
   $var wire 3 < _GEN_6 $end
   $var wire 1 = io_deq_valid $end
   $var wire 4 > _value_T_2 $end
   $var wire 3 ? _GEN_0 $end
   $var wire 1 B _GEN_9 $end
   $var wire 1 D empty $end
   $var wire 4 G _value_T $end
   $var wire 3 I value_1 $end
   $var wire 1 M _empty_T $end
   $var wire 8 O ram $end
   $var wire 1 P clock $end
   $var wire 1 S maybe_full $end
   $var wire 3 W _value_T_1 $end
   $var wire 1 Y do_enq $end
   $var wire 3 ] value $end
   $var wire 3 c _GEN_8 $end
   $var wire 8 f io_deq_bits $end
   $var wire 1 g io_deq_ready $end
   $var wire 1 h _T $end
   $var wire 1 m full $end
   $var wire 1 s io_enq_valid $end
   $var wire 8 w io_enq_bits $end
   $var wire 1 x wrap $end
   $var wire 1 ~ wrap_1 $end
   $var wire 1 "$ reset $end
    $scope module ram $end
     $var wire 8 p MPORT $end
      $scope module MPORT $end
       $var wire 3 2 pipeline_addr_0 $end
       $var wire 3 6 addr $end
       $var wire 1 F en $end
       $var wire 8 N data $end
       $var wire 8 _ pipeline_data_0 $end
       $var wire 1 a pipeline_valid_0 $end
       $var wire 1 j clk $end
       $var wire 1 z valid $end
       $var wire 1 } mask $end
      $upscope $end
      $scope module io_deq_bits_MPORT $end
       $var wire 1 ; clk $end
       $var wire 8 A data $end
       $var wire 1 b en $end
       $var wire 3 "! addr $end
      $upscope $end
    $upscope $end
  $upscope $end
  $scope module queue $end
   $var wire 1 ! wrap $end
   $var wire 4 $ _value_T_2 $end
   $var wire 1 % ptr_match $end
   $var wire 8 ) io_enq_bits $end
   $var wire 1 * full $end
   $var wire 1 - do_deq $end
   $var wire 3 0 value $end
   $var wire 1 3 clock $end
   $var wire 1 8 _GEN_9 $end
   $var wire 1 9 io_enq_valid $end
   $var wire 3 : _GEN_0 $end
   $var wire 1 @ maybe_full $end
   $var wire 1 C io_deq_ready $end
   $var wire 3 E _GEN_6 $end
   $var wire 4 K _value_T $end
   $var wire 3 L _value_T_1 $end
   $var wire 1 R reset $end
   $var wire 1 T _empty_T $end
   $var wire 1 V do_enq $end
   $var wire 3 Z _GEN_8 $end
   $var wire 8 \ ram $end
   $var wire 1 i io_enq_ready $end
   $var wire 1 n empty $end
   $var wire 1 o io_deq_valid $end
   $var wire 3 r _value_T_3 $end
   $var wire 1 t _T $end
   $var wire 1 y wrap_1 $end
   $var wire 8 { io_deq_bits $end
   $var wire 3 | value_1 $end
   $var wire 3 "# _GEN_7 $end
    $scope module ram $end
     $var wire 8 "" MPORT $end
      $scope module MPORT $end
       $var wire 3 & pipeline_addr_0 $end
       $var wire 1 ' clk $end
       $var wire 1 / mask $end
       $var wire 3 H addr $end
       $var wire 8 U pipeline_data_0 $end
       $var wire 8 ` data $end
       $var wire 1 k en $end
       $var wire 1 l pipeline_valid_0 $end
       $var wire 1 q valid $end
      $upscope $end
      $scope module io_deq_bits_MPORT $end
       $var wire 3 , addr $end
       $var wire 1 5 clk $end
       $var wire 8 J data $end
       $var wire 1 "% en $end
      $upscope $end
    $upscope $end
  $upscope $end
$upscope $end
$enddefinitions $end
$dumpvars
b000 "#
0X
0C
0;
b000 2
0o
b0000 >
0R
0=
b000 I
b00000000 \
b000 ,
0q
0i
0T
b00000000 {
07
b00000000 A
b000 &
0k
b000 "!
0V
1/
b00000000 u
b00000000 `
b000 Z
b000 E
09
0m
0e
0P
b00000000 w
03
b000 ?
b000 "
0g
b0000 K
05
0-
0~
b00000000 ""
0a
0D
b00000000 N
0x
b0000 G
0[
0F
01
0z
0@
0+
b000 L
b00000000 J
0t
0B
b000 c
0%
0v
0n
0Y
b000 ]
b000 H
0'
b000 |
0S
0!
1}
0j
b0000 $
0M
08
b00000000 _
1b
0l
0d
b000 r
04
b00000000 p
b00000000 )
0h
b000 #
b000 W
0.
b00000000 U
b000 :
0"$
b000 <
0(
b00000000 O
0y
b00000000 f
b00000000 Q
b000 6
0*
0s
0^
1"%
b000 0
$end
#0
1%
14
1"$
1v
1.
1R
1D
b0001 K
1i
b001 L
b0001 >
1M
1T
b001 ?
b001 r
b001 "
1d
b001 #
b0001 G
b0001 $
b001 W
b001 "#
1+
b001 :
1n
#1
13
15
1'
1[
1j
1P
1;
#6
03
b00000010 u
b00000010 `
0"$
0v
0R
05
0'
b001 E
0[
0j
1q
b00000010 )
11
18
1k
1V
19
1^
0P
0;
1t
#11
13
b001 <
b00000010 J
15
1h
b0010 K
b010 L
1j
b001 0
b00000010 N
1F
1z
b001 H
b00000010 {
1B
0%
1Y
b00000010 w
1o
1'
b010 E
1[
0T
b00000010 U
1@
1s
1l
b010 :
1P
1;
0n
#16
03
05
0'
0[
0j
0P
0;
#21
13
b00000010 f
b00000010 Q
b010 <
1g
15
0h
1S
b0011 K
b001 6
1a
b011 L
17
1j
0M
b010 0
b001 c
b0010 G
b001 ]
b010 H
b00000010 A
b00000010 _
0.
b001 &
0D
1'
b011 E
1=
1(
1[
b010 ?
b010 W
b011 :
1P
1;
#26
03
05
0'
0[
0j
0P
0;
#31
13
b011 <
b010 &
15
b0100 K
b010 6
b100 E
1'
b100 L
1[
1j
b0010 >
b011 0
b011 ?
b010 c
b010 "
b001 "!
b010 #
b0011 G
b001 2
b010 ]
b011 H
b011 W
b100 :
b001 I
1P
1;
#36
03
05
0'
0[
0j
0P
0;
#41
13
b100 <
15
b0101 K
b011 6
b101 L
1j
b100 0
b011 c
b010 "!
b0100 G
b010 2
b011 ]
b100 H
b010 I
b011 &
1'
b000 E
1[
b0011 >
1!
b100 ?
b011 "
b011 #
b100 W
b000 :
1P
1;
#46
03
05
0'
0[
0j
0P
0;
#51
13
b000 <
15
b0001 K
b100 6
0i
b001 L
1j
b000 0
b100 c
b011 "!
b0101 G
b011 2
1*
b100 ]
b000 H
0+
b011 I
0t
1%
b100 &
1'
1x
1[
b0100 >
0q
0!
b000 ?
b100 "
b100 #
0V
0k
b101 W
b001 :
1P
1;
#56
03
05
0'
0[
0j
0P
0;
#61
13
b001 <
b000 &
15
1'
1~
b000 6
0x
1[
1j
b0101 >
b001 ?
b000 c
b101 "
b100 "!
b000 #
b0001 G
b100 2
b000 ]
0l
b001 W
b100 I
1P
1;
#66
03
05
0'
0[
0j
0P
0;
#71
13
b010 <
15
1'
0~
b001 6
1[
1j
b0001 >
b010 ?
b001 c
b001 "
b000 "!
b001 #
b0010 G
b000 2
b001 ]
b010 W
b000 I
1P
1;
#76
03
05
0'
0[
0j
0P
0;
#81
13
b011 <
15
1'
b010 6
1[
1j
b0010 >
b011 ?
b010 c
b010 "
b001 "!
b010 #
b0011 G
b001 2
b010 ]
b011 W
b001 I
1P
1;
#86
03
05
0'
0[
0j
0P
0;
#91
13
b100 <
15
1'
b011 6
1[
1j
b0011 >
b100 ?
b011 c
b011 "
b010 "!
b011 #
b0100 G
b010 2
b011 ]
b100 W
b010 I
1P
1;
#96
03
05
0'
0[
0j
0P
0;
#101
13
b000 <
15
1'
b100 6
1x
1[
1j
b0100 >
b000 ?
b100 c
b100 "
b011 "!
b100 #
b0101 G
b011 2
b100 ]
b101 W
b011 I
1P
1;
#106
03
b00000000 u
b00000000 Q
b00000000 `
0g
05
1h
0'
0(
0[
07
0j
b00000000 )
b011 c
01
09
0^
0P
0;
#111
13
b001 <
15
1'
b000 6
0x
1[
1j
b001 ?
b00000000 U
b0001 G
b100 2
b000 ]
b001 W
1P
1;
