test_run_dir/Test6/Exercise1_Lab6.vcd
$date
2021-04-07T05:36+0000
$end
$version
0.2
$end
$comment

$end
$timescale 1ns  $end
$scope module Exercise1_Lab6 $end
 $var wire 3 ! _state_T $end
 $var wire 1 " io_out $end
 $var wire 1 # _T $end
 $var wire 4 $ state $end
 $var wire 4 % _load_T_1 $end
 $var wire 4 & _GEN_1 $end
 $var wire 1 ' clock $end
 $var wire 4 ( load $end
 $var wire 5 ) _load_T $end
 $var wire 4 * _GEN_0 $end
 $var wire 1 + _io_out_T $end
 $var wire 4 , io_in $end
 $var wire 1 - reset $end
$upscope $end
$enddefinitions $end
$dumpvars
0"
b0000 *
b0000 $
0#
b0000 (
0-
0'
b0000 ,
0+
b00000 )
b0000 %
b000 !
b0000 &
$end
#0
1-
b0001 %
1#
b0001 *
b00001 )
#1
1'
#6
0-
b1101 &
0'
b1101 ,
#11
b110 !
b0010 %
1"
b0110 &
0#
1'
b1101 $
1+
b0001 (
b00010 )
#16
0'
#21
b011 !
0"
b0011 &
1'
b0110 $
0+
#26
0'
#31
b001 !
1"
b0001 &
1'
b0011 $
1+
#36
0'
#41
b000 !
b0000 &
1'
b0001 $
#46
0'
#51
0"
1'
b0000 $
0+
#56
0'
#61
1'
#66
0'
#71
1'
#76
0'
#81
1'
#86
0'
#91
1'
#96
0'
#101
1'
#106
0'
#111
1'
#116
0'
#121
1'
#126
0'
#131
1'
#136
0'
#141
1'
#146
0'
#151
1'
#156
0'
#161
1'
#166
0'
#171
1'
#176
0'
#181
1'
#186
0'
#191
1'
#196
0'
#201
1'
#206
0'
#211
1'
#216
0'
#221
1'
#226
0'
#231
1'
#236
0'
#241
1'
#246
0'
#251
1'
#256
0'
#261
1'
#266
0'
#271
1'
#276
0'
#281
1'
#286
0'
#291
1'
#296
0'
#301
1'
#306
0'
#311
1'
#316
0'
#321
1'
#326
0'
#331
1'
#336
0'
#341
1'
#346
0'
#351
1'
#356
0'
#361
1'
#366
0'
#371
1'
#376
0'
#381
1'
#386
0'
#391
1'
#396
0'
#401
1'
#406
0'
#411
1'
#416
0'
#421
1'
#426
0'
#431
1'
#436
0'
#441
1'
#446
0'
#451
1'
#456
0'
#461
1'
#466
0'
#471
1'
#476
0'
#481
1'
#486
0'
#491
1'
#496
0'
#501
1'
#506
0'
#511
1'
#516
0'
#521
1'
#526
0'
#531
1'
#536
0'
#541
1'
#546
0'
#551
1'
#556
0'
#561
1'
#566
0'
#571
1'
#576
0'
#581
1'
#586
0'
#591
1'
#596
0'
#601
1'
#606
0'
#611
1'
#616
0'
#621
1'
#626
0'
#631
1'
#636
0'
#641
1'
#646
0'
#651
1'
#656
0'
#661
1'
#666
0'
#671
1'
#676
0'
#681
1'
#686
0'
#691
1'
#696
0'
#701
1'
#706
0'
#711
1'
#716
0'
#721
1'
#726
0'
#731
1'
#736
0'
#741
1'
#746
0'
#751
1'
#756
0'
#761
1'
#766
0'
#771
1'
#776
0'
#781
1'
#786
0'
#791
1'
#796
0'
#801
1'
#806
0'
#811
1'
#816
0'
#821
1'
#826
0'
#831
1'
#836
0'
#841
1'
#846
0'
#851
1'
#856
0'
#861
1'
#866
0'
#871
1'
#876
0'
#881
1'
#886
0'
#891
1'
#896
0'
#901
1'
#906
0'
#911
1'
#916
0'
#921
1'
#926
0'
#931
1'
#936
0'
#941
1'
#946
0'
#951
1'
#956
0'
#961
1'
#966
0'
#971
1'
#976
0'
#981
1'
#986
0'
#991
1'
#996
0'
#1001
1'
#1006
0'
b0000 ,
