test_run_dir/Test6/Exercise3_Lab6.vcd
$date
2021-04-08T08:23+0000
$end
$version
0.2
$end
$comment

$end
$timescale 1ns  $end
$scope module Exercise3_Lab6 $end
 $var wire 4 ! _GEN_10 $end
 $var wire 4 " _GEN_2 $end
 $var wire 1 # _T $end
 $var wire 4 $ _GEN_5 $end
 $var wire 4 % _counter_2_T_3 $end
 $var wire 4 & _GEN_8 $end
 $var wire 5 ' _counter_2_T $end
 $var wire 5 ( _counter_T $end
 $var wire 4 ) _GEN_7 $end
 $var wire 5 * _counter_2_T_2 $end
 $var wire 4 + _counter_T_1 $end
 $var wire 1 , io_clock_High $end
 $var wire 4 - _GEN_1 $end
 $var wire 4 . _GEN_4 $end
 $var wire 4 / counter $end
 $var wire 1 0 clock $end
 $var wire 4 1 counter_2 $end
 $var wire 4 2 _GEN_11 $end
 $var wire 4 3 _counter_2_T_1 $end
 $var wire 1 4 _GEN_6 $end
 $var wire 4 5 io_in $end
 $var wire 1 6 reset $end
 $var wire 1 7 _GEN_3 $end
$upscope $end
$enddefinitions $end
$dumpvars
04
b0000 .
b0000 /
b0000 )
b0000 !
b0000 "
b0000 1
b00000 '
06
00
b0000 2
07
b0000 $
0#
b0000 +
b00000 (
b0000 3
b0000 -
b0000 %
0,
b00000 *
b0000 &
b0000 5
$end
#0
b1111 3
b0001 %
14
b0001 .
b11111 '
16
b11111 (
17
b0001 )
b0001 "
b0001 2
b00001 *
b1111 +
1,
#1
b0111 3
b1000 -
b1001 %
04
b1000 .
b0111 &
b00111 '
b00111 (
b1000 /
b0111 )
b0111 !
10
b1000 "
b1000 1
1#
b0111 2
b01001 *
b1000 $
b0111 +
#6
00
b1100 5
06
#11
b0110 3
b0111 -
b1000 %
b0110 &
b00110 '
b00110 (
07
b0111 /
b0110 )
b0110 !
10
b0111 1
0#
b0110 2
b01000 *
b0111 $
b0110 +
0,
#16
00
#21
b0101 3
b0110 -
b0111 %
b0111 .
b0101 &
b00101 '
b00101 (
b0110 /
b0101 )
b0101 !
10
b0111 "
b0110 1
b0101 2
b00111 *
b0110 $
b0101 +
#26
00
#31
b0100 3
b0101 -
b0110 %
b0110 .
b0100 &
b00100 '
b00100 (
b0101 /
b0100 )
b0100 !
10
b0110 "
b0101 1
b0100 2
b00110 *
b0101 $
b0100 +
#36
00
#41
b0011 3
b0100 -
b0101 %
b0101 .
b0011 &
b00011 '
b00011 (
b0100 /
b0011 )
b0011 !
10
b0101 "
b0100 1
b0011 2
b00101 *
b0100 $
b0011 +
#46
00
#51
b0010 3
b0011 -
b0100 %
b0100 .
b0010 &
b00010 '
b00010 (
b0011 /
b0010 )
b0010 !
10
b0100 "
b0011 1
b0010 2
b00100 *
b0011 $
b0010 +
#56
00
#61
b0001 3
b0010 -
b0011 %
b0011 .
b0001 &
b00001 '
b00001 (
b0010 /
b0001 )
b0001 !
10
b0011 "
b0010 1
b0001 2
b00011 *
b0010 $
b0001 +
#66
00
#71
b0000 3
b0001 -
b0010 %
b0010 .
b0000 &
b00000 '
b00000 (
b0001 /
b0000 )
b0000 !
10
b0010 "
b0001 1
b0000 2
b00010 *
b0001 $
b0000 +
#76
00
#81
b1111 3
b0000 -
b0001 %
14
b0001 .
b11111 '
b11111 (
17
b0000 /
b0001 )
10
b0001 "
b0000 1
b0001 2
b00001 *
b0000 $
b1111 +
1,
#86
00
#91
b0000 3
10
b0010 %
b0010 "
b0001 1
b0010 .
04
b0010 2
b00010 *
b00000 '
07
0,
b0010 )
#96
00
#101
b0001 3
10
b0011 %
b0011 "
b0010 1
b0011 .
b0011 2
b00011 *
b00001 '
b0011 )
#106
00
#111
b0010 3
10
b0100 %
b0100 "
b0011 1
b0100 .
b0100 2
b00100 *
b00010 '
b0100 )
#116
00
#121
b0011 3
10
b0101 %
b0101 "
b0100 1
b0101 .
b0101 2
b00101 *
b00011 '
b0101 )
#126
00
#131
b0100 3
10
b0110 %
b0110 "
b0101 1
b0110 .
b0110 2
b00110 *
b00100 '
b0110 )
#136
00
#141
b0101 3
10
b0111 %
b0111 "
b0110 1
b0111 .
b0111 2
b00111 *
b00101 '
b0111 )
#146
00
#151
b0110 3
10
b1000 %
b1000 "
b0111 1
b1000 .
b1000 2
b01000 *
b00110 '
b1000 )
#156
00
b0000 5
#161
b0111 3
10
b1000 -
b1000 !
b1001 %
14
b1000 1
b1000 &
b01001 *
b00111 '
b1000 $
17
1,
