test_run_dir/Test6/Exercise3_Lab6.vcd
$date
2021-04-06T12:08+0000
$end
$version
0.2
$end
$comment

$end
$timescale 1ns  $end
$scope module Exercise3_Lab6 $end
 $var wire 4 ! next $end
 $var wire 1 " _T $end
 $var wire 5 # _next_T_2 $end
 $var wire 1 $ _GEN_5 $end
 $var wire 4 % _next_T_1 $end
 $var wire 4 & _GEN_7 $end
 $var wire 1 ' done $end
 $var wire 5 ( _next_T $end
 $var wire 4 ) _GEN_1 $end
 $var wire 1 * io_clock_High $end
 $var wire 4 + _GEN_4 $end
 $var wire 4 , counter $end
 $var wire 1 - clock $end
 $var wire 4 . _next_T_3 $end
 $var wire 4 / io_in $end
 $var wire 1 0 reset $end
 $var wire 1 1 _GEN_3 $end
$upscope $end
$enddefinitions $end
$dumpvars
b00000 #
b0000 .
0-
0'
b0000 /
b0000 )
b0000 !
00
0"
01
b0000 +
0*
b00000 (
b0000 ,
b0000 %
0$
b0000 &
$end
#0
10
b1111 %
11
b0001 .
b00001 #
1*
1'
1$
b0001 +
b11111 (
b0001 )
#1
1-
b1110 %
b0000 .
0'
b01110 (
b0000 )
b1110 !
1"
01
b10000 #
0*
0$
b0000 +
b1111 ,
#6
00
0-
b1100 /
#11
b1101 !
1-
b1101 %
b1111 .
b01111 #
b01101 (
b1110 ,
b1111 )
#16
0-
#21
b1100 !
1-
b1100 %
b1110 .
b01110 #
b01100 (
b1101 ,
b1110 )
#26
0-
#31
b1011 !
1-
b1011 %
b1101 .
b01101 #
b01011 (
b1100 ,
b1101 )
#36
0-
#41
b1010 !
1-
b1010 %
b1100 .
b01100 #
b01010 (
b1011 ,
b1100 )
#46
0-
#51
b1001 !
1-
b1001 %
b1011 .
b01011 #
b01001 (
b1010 ,
b1011 )
#56
0-
#61
b1000 !
1-
b1000 %
b1010 .
b01010 #
b01000 (
b1001 ,
b1010 )
#66
0-
#71
b0111 !
1-
b0111 %
b1001 .
b01001 #
b00111 (
b1000 ,
b1001 )
#76
0-
#81
b0110 !
1-
b0110 %
b1000 .
b01000 #
b00110 (
b0111 ,
b1000 )
#86
0-
#91
b0101 !
1-
b0101 %
b0111 .
b00111 #
b00101 (
b0110 ,
b0111 )
#96
0-
#101
b0100 !
1-
b0100 %
b0110 .
b00110 #
b00100 (
b0101 ,
b0110 )
#106
0-
#111
b0011 !
1-
b0011 %
b0101 .
b00101 #
b00011 (
b0100 ,
b0101 )
#116
0-
#121
b0010 !
1-
b0010 %
b0100 .
b00100 #
b00010 (
b0011 ,
b0100 )
#126
0-
#131
b0001 !
1-
b0001 %
b0011 .
b00011 #
b00001 (
b0010 ,
b0011 )
#136
0-
#141
b0000 !
1-
b0000 %
b0010 .
b00010 #
b00000 (
b0001 ,
b0010 )
#146
0-
#151
1-
b1111 %
0"
11
b0001 .
b00001 #
1*
1'
1$
b0001 +
b11111 (
b0000 ,
b0001 )
