test_run_dir/Test6/Task4_Lab6.vcd
$date
2021-04-08T11:30+0000
$end
$version
0.2
$end
$comment

$end
$timescale 1ns  $end
$scope module Task4_Lab6 $end
 $var wire 5 ! io_out $end
 $var wire 5 " _GEN_2 $end
 $var wire 1 # io_up_down $end
 $var wire 5 $ _count_down_T_1 $end
 $var wire 6 % _count_up_T $end
 $var wire 5 & _GEN_1 $end
 $var wire 5 ' _GEN_4 $end
 $var wire 1 ( clock $end
 $var wire 5 ) count_up $end
 $var wire 5 * count_down $end
 $var wire 5 + _GEN_0 $end
 $var wire 6 , _count_down_T $end
 $var wire 1 - reset $end
 $var wire 5 . _count_up_T_1 $end
$upscope $end
$enddefinitions $end
$dumpvars
b00000 $
0-
b00000 &
b00000 '
b00000 .
0(
0#
b00000 !
b000000 ,
b00000 "
b000000 %
b00000 )
b00000 *
b00000 +
$end
#0
1-
b000001 %
b00001 .
b11111 '
b11111 $
b11111 +
b111111 ,
#1
b00101 !
b00101 &
b00101 *
b00100 '
b00100 $
b00100 +
1(
b000100 ,
#6
0-
0(
#11
b00100 !
b00100 &
b00100 *
b00011 '
b00011 $
b00011 +
1(
b000011 ,
#16
0(
#21
b00011 !
b00011 &
b00011 *
b00010 '
b00010 $
b00010 +
1(
b000010 ,
#26
0(
#31
b00010 !
b00010 &
b00010 *
b00001 '
b00001 $
b00001 +
1(
b000001 ,
#36
0(
#41
b00001 !
b00001 &
b00001 *
b00000 '
b00000 $
b00000 +
1(
b000000 ,
#46
0(
#51
b00000 !
b00000 &
b00000 *
b11111 '
b11111 $
b11111 +
1(
b111111 ,
#56
b00001 "
1#
b00000 '
b00000 +
0(
#61
b00001 !
b000010 %
b00010 "
b00010 .
1(
b00001 )
#66
0(
#71
b00010 !
b000011 %
b00011 "
b00011 .
1(
b00010 )
#76
0(
#81
b00011 !
b000100 %
b00100 "
b00100 .
1(
b00011 )
#86
0(
#91
b00100 !
b000101 %
b00101 "
b00101 .
1(
b00100 )
#96
0(
#101
b00101 !
b000110 %
b00110 "
b00110 .
1(
b00101 )
#106
b00000 !
b00101 "
0#
b11111 '
b11111 +
0(
#111
b11111 !
b11111 &
b11111 *
b11110 '
b11110 $
b11110 +
1(
b011110 ,
