test_run_dir/Test6/Task3_Lab6.vcd
$date
2021-04-07T10:03+0000
$end
$version
0.2
$end
$comment

$end
$timescale 1ns  $end
$scope module Task3_Lab6 $end
 $var wire 3 ! _state_T $end
 $var wire 1 " _GEN_2 $end
 $var wire 4 # io_out_Parallel $end
 $var wire 4 $ _GEN_5 $end
 $var wire 4 % _GEN_8 $end
 $var wire 4 & state $end
 $var wire 4 ' _GEN_7 $end
 $var wire 4 ( _load_T_1 $end
 $var wire 4 ) _GEN_1 $end
 $var wire 4 * _GEN_4 $end
 $var wire 1 + _io_out_Serial_T $end
 $var wire 1 , clock $end
 $var wire 4 - load $end
 $var wire 1 . io_load $end
 $var wire 5 / _load_T $end
 $var wire 4 0 _GEN_6 $end
 $var wire 4 1 _GEN_0 $end
 $var wire 4 2 _GEN_9 $end
 $var wire 4 3 io_in $end
 $var wire 1 4 reset $end
 $var wire 1 5 io_out_Serial $end
$upscope $end
$enddefinitions $end
$dumpvars
04
b0000 '
05
b0000 (
b0000 )
0.
b0000 0
b0000 1
b0000 #
b0000 2
0"
b0000 *
b00000 /
b0000 $
0+
b0000 3
b0000 -
b0000 %
0,
b000 !
b0000 &
$end
#0
b0001 %
14
b0001 1
b0001 $
b0001 (
b00001 /
#1
1,
#6
b1101 3
b0000 0
04
1.
b1101 2
b1101 *
b0000 $
0,
b1101 )
#11
b110 !
b1101 0
b0001 -
1"
b1101 &
15
b0110 2
b0001 $
1+
b0010 (
b00010 /
1,
b0110 )
#16
0,
#21
b011 !
b0110 0
0"
b0110 &
05
b0011 2
b0110 *
0+
1,
b0011 )
#26
0,
#31
b001 !
b0011 0
1"
b0011 &
15
b0001 2
b0011 *
1+
1,
b0001 )
#36
0,
#41
b000 !
b0001 0
b0001 &
b0000 2
b0001 *
1,
b0000 )
#46
0,
#51
b0000 0
0"
b0000 &
05
b0000 *
0+
1,
#56
b0000 3
0.
0,
