test_run_dir/Test6/Task2_Lab6.vcd
$date
2021-04-08T06:51+0000
$end
$version
0.2
$end
$comment

$end
$timescale 1ns  $end
$scope module Task2_Lab6 $end
 $var wire 4 ! io_out $end
 $var wire 1 " _GEN_2 $end
 $var wire 4 # _T $end
 $var wire 4 $ _counter_T_2 $end
 $var wire 5 % _counter_T $end
 $var wire 4 & _counter_T_1 $end
 $var wire 4 ' counter $end
 $var wire 1 ( clock $end
 $var wire 4 ) _GEN_0 $end
 $var wire 4 * io_in $end
 $var wire 1 + reset $end
 $var wire 1 , io_top $end
 $var wire 1 - _GEN_3 $end
$upscope $end
$enddefinitions $end
$dumpvars
0"
b0000 *
b0000 '
b0000 $
0-
b00000 %
b0000 )
0+
b0000 !
0,
b0000 &
b0000 #
0(
$end
#0
b00001 %
b0001 &
b0001 $
1+
b0001 )
#1
1(
#6
b1100 *
0+
0(
#11
b00010 %
b0010 &
b0001 '
b0010 $
1(
b0010 )
#16
0(
#21
b00011 %
b0011 &
b0010 '
b0011 $
1(
b0011 )
#26
0(
#31
b00100 %
b0100 &
b0011 '
b0100 $
1(
b0100 )
#36
0(
#41
b00101 %
b0101 &
b0100 '
b0101 $
1(
b0101 )
#46
0(
#51
b00110 %
b0110 &
b0101 '
b0110 $
1(
b0110 )
#56
0(
#61
b00111 %
b0111 &
b0110 '
b0111 $
1(
b0111 )
#66
0(
#71
b01000 %
b1000 &
b0111 '
b1000 $
1(
b1000 )
#76
0(
#81
b0001 !
1-
b11001 %
1"
b1001 &
b1111 #
b1000 '
b1001 $
1(
1,
b0000 )
#86
0(
#91
b0000 !
0-
b00001 %
0"
b0001 &
b0000 #
b0000 '
b0001 $
1(
0,
b0001 )
#96
0(
#101
b00010 %
b0010 &
b0001 '
b0010 $
1(
b0010 )
#106
0(
#111
b00011 %
b0011 &
b0010 '
b0011 $
1(
b0011 )
#116
0(
#121
b00100 %
b0100 &
b0011 '
b0100 $
1(
b0100 )
#126
0(
#131
b00101 %
b0101 &
b0100 '
b0101 $
1(
b0101 )
#136
0(
#141
b00110 %
b0110 &
b0101 '
b0110 $
1(
b0110 )
#146
b0000 *
0(
#151
b00111 %
b0111 &
b0110 '
b0111 $
1(
b0111 )
